{
	"version": 1,
	"changelists": [
		{
			"guid": "00000000000000000000000000000000",
			"description": "Default Uncontrolled Changelist",
			"files": [
				"C:/Users/wolk1/OneDrive/Documents/Unreal Projects/tps/Content/StarterContent/HDRI/HDRI_Epic_Courtyard_Daylight.uasset",
				"C:/Users/wolk1/OneDrive/Documents/Unreal Projects/tps/Content/__ExternalActors__/Map/TopDownMap/B/ZF/3GDHXM96LCDZJ6N44DA63O.uasset",
				"C:/Users/wolk1/OneDrive/Documents/Unreal Projects/tps/Content/__ExternalObjects__/Map/TopDownMap/1/IE/DE9YZ0BJQ137JPHHVELJN2.uasset",
				"C:/Users/wolk1/OneDrive/Documents/Unreal Projects/tps/Content/__ExternalObjects__/Map/TopDownMap/9/0M/ZERYINYS7Y8OBSNQ1MW621.uasset",
				"C:/Users/wolk1/OneDrive/Documents/Unreal Projects/tps/Content/__ExternalObjects__/Map/TopDownMap/8/5M/J0QYPIW0SEZY3C6CK7RNH4.uasset",
				"C:/Users/wolk1/OneDrive/Documents/Unreal Projects/tps/Content/__ExternalObjects__/Map/TopDownMap/E/ZF/VUC51LO923XMJAMV9EQVFP.uasset",
				"C:/Users/wolk1/OneDrive/Documents/Unreal Projects/tps/Content/__ExternalObjects__/Map/TopDownMap/5/IX/D7O7553W3Q2UNYSGYTAQS9.uasset",
				"C:/Users/wolk1/OneDrive/Documents/Unreal Projects/tps/Content/__ExternalActors__/Map/TopDownMap/3/ZG/OJ9ELFX80EYWV2V2AT3BT8.uasset",
				"C:/Users/wolk1/OneDrive/Documents/Unreal Projects/tps/Content/__ExternalActors__/Map/TopDownMap/8/FN/0364IDHC7WCHEJVAAB8RV5.uasset",
				"C:/Users/wolk1/OneDrive/Documents/Unreal Projects/tps/Content/__ExternalActors__/Map/TopDownMap/A/IF/WNEK1NJNE3EUU2VO79AXRV.uasset",
				"C:/Users/wolk1/OneDrive/Documents/Unreal Projects/tps/Content/__ExternalActors__/Map/TopDownMap/E/AU/EST8TA5GPXFCJO0PZIV8MV.uasset",
				"C:/Users/wolk1/OneDrive/Documents/Unreal Projects/tps/Content/__ExternalActors__/Map/TopDownMap/A/36/ENEI5K4MWM003HW7W6CLIW.uasset",
				"C:/Users/wolk1/OneDrive/Documents/Unreal Projects/tps/Content/__ExternalActors__/Map/TopDownMap/8/CS/A299KM4KP4NFYHPDCKFV0C.uasset",
				"C:/Users/wolk1/OneDrive/Documents/Unreal Projects/tps/Content/__ExternalActors__/Map/TopDownMap/B/XS/45R9NJQF07QC6Y5N9UQZJ8.uasset",
				"C:/Users/wolk1/OneDrive/Documents/Unreal Projects/tps/Content/__ExternalActors__/Map/TopDownMap/7/6U/CZUBLGRLCDSXVB03X308QS.uasset",
				"C:/Users/wolk1/OneDrive/Documents/Unreal Projects/tps/Content/__ExternalActors__/Map/TopDownMap/5/6F/1BUD0FC2B7ULS4KRBHJK88.uasset",
				"C:/Users/wolk1/OneDrive/Documents/Unreal Projects/tps/Content/__ExternalActors__/Map/TopDownMap/B/70/SFP2N9X55W1A1C8OPXXOI1.uasset",
				"C:/Users/wolk1/OneDrive/Documents/Unreal Projects/tps/Content/__ExternalActors__/Map/TopDownMap/3/VI/20JE7UNLU9SVCVGGYV7A3F.uasset",
				"C:/Users/wolk1/OneDrive/Documents/Unreal Projects/tps/Content/__ExternalActors__/Map/TopDownMap/0/ZA/9IMO9YCFYXFVAUB072WRL2.uasset",
				"C:/Users/wolk1/OneDrive/Documents/Unreal Projects/tps/Content/__ExternalActors__/Map/TopDownMap/7/N7/SXVA37IYY6Z7DS8ALW4ZAB.uasset",
				"C:/Users/wolk1/OneDrive/Documents/Unreal Projects/tps/Content/__ExternalActors__/Map/TopDownMap/6/XM/J5BO2Y8LJJ6OGFR03ZZ0KJ.uasset",
				"C:/Users/wolk1/OneDrive/Documents/Unreal Projects/tps/Content/__ExternalActors__/Map/TopDownMap/4/M6/M7XU6UQ20X2LUNTN9YKROY.uasset",
				"C:/Users/wolk1/OneDrive/Documents/Unreal Projects/tps/Content/__ExternalActors__/Map/TopDownMap/2/2S/XI1Y9YEVCLQ3JOZ57IW90S.uasset",
				"C:/Users/wolk1/OneDrive/Documents/Unreal Projects/tps/Content/__ExternalActors__/Map/TopDownMap/A/UI/IS349SRZZHDVN7QPIIQASA.uasset",
				"C:/Users/wolk1/OneDrive/Documents/Unreal Projects/tps/Content/__ExternalActors__/Map/TopDownMap/C/9V/YB2Q1ML1MG0O1RQGLD2ITK.uasset",
				"C:/Users/wolk1/OneDrive/Documents/Unreal Projects/tps/Content/__ExternalActors__/Map/TopDownMap/2/3Y/7D0B79JPVZVDIKX5UJAZR5.uasset",
				"C:/Users/wolk1/OneDrive/Documents/Unreal Projects/tps/Content/__ExternalActors__/Map/TopDownMap/8/MW/2211F8DRXXU7LXA6RSTK2L.uasset",
				"C:/Users/wolk1/OneDrive/Documents/Unreal Projects/tps/Content/__ExternalActors__/Map/TopDownMap/9/YS/NXTRVR7BHN89YE5YTHHJQO.uasset",
				"C:/Users/wolk1/OneDrive/Documents/Unreal Projects/tps/Content/__ExternalActors__/Map/TopDownMap/E/FB/SIE8EQVIL4RCACMG5S6H8E.uasset",
				"C:/Users/wolk1/OneDrive/Documents/Unreal Projects/tps/Content/__ExternalActors__/Map/TopDownMap/E/US/HLVZOR10JG3FRRGY79N3C3.uasset",
				"C:/Users/wolk1/OneDrive/Documents/Unreal Projects/tps/Content/__ExternalActors__/Map/TopDownMap/E/DQ/64IN40DI7WW2UZZ6MQZEW4.uasset",
				"C:/Users/wolk1/OneDrive/Documents/Unreal Projects/tps/Content/__ExternalActors__/Map/TopDownMap/C/66/132EDP6AOYWLIWK31GPW5H.uasset",
				"C:/Users/wolk1/OneDrive/Documents/Unreal Projects/tps/Content/__ExternalActors__/Map/TopDownMap/1/IZ/A2W8NSAKGJF68YABW46KRC.uasset",
				"C:/Users/wolk1/OneDrive/Documents/Unreal Projects/tps/Content/__ExternalActors__/Map/TopDownMap/5/MT/TCVWN0Q3YL9N6YYR9L41B4.uasset",
				"C:/Users/wolk1/OneDrive/Documents/Unreal Projects/tps/Content/__ExternalActors__/Map/TopDownMap/4/KR/DB27XONEK7ICO9Z03Q2RIK.uasset",
				"C:/Users/wolk1/OneDrive/Documents/Unreal Projects/tps/Content/__ExternalActors__/Map/TopDownMap/D/SY/0VAF6B4CRTKDHDFL0GW8KY.uasset",
				"C:/Users/wolk1/OneDrive/Documents/Unreal Projects/tps/Content/__ExternalActors__/Map/TopDownMap/E/YY/17DUEI9RZFCR8RGW6J794W.uasset",
				"C:/Users/wolk1/OneDrive/Documents/Unreal Projects/tps/Content/__ExternalActors__/Map/TopDownMap/D/BL/CTLD3IJXWE25Q7MHOY8597.uasset",
				"C:/Users/wolk1/OneDrive/Documents/Unreal Projects/tps/Content/__ExternalActors__/Map/TopDownMap/2/QH/TWVIPSU8W1IL8B4JIFTRS2.uasset",
				"C:/Users/wolk1/OneDrive/Documents/Unreal Projects/tps/Content/__ExternalActors__/Map/TopDownMap/7/FL/28OC9HFI26WKVRWR5KVJWH.uasset",
				"C:/Users/wolk1/OneDrive/Documents/Unreal Projects/tps/Content/__ExternalActors__/Map/TopDownMap/9/TH/6WSSWKG6M98M2GU4LINVRD.uasset",
				"C:/Users/wolk1/OneDrive/Documents/Unreal Projects/tps/Content/__ExternalActors__/Map/TopDownMap/3/MX/5D51OJ1CH7N6H4XZ437075.uasset",
				"C:/Users/wolk1/OneDrive/Documents/Unreal Projects/tps/Content/__ExternalActors__/Map/TopDownMap/E/YY/57ZRZ2R51JLVIURNDT00HH.uasset",
				"C:/Users/wolk1/OneDrive/Documents/Unreal Projects/tps/Content/__ExternalActors__/Map/TopDownMap/A/OD/8GHMURGLYTJTKZ328LCV1Y.uasset",
				"C:/Users/wolk1/OneDrive/Documents/Unreal Projects/tps/Content/__ExternalActors__/Map/TopDownMap/3/1J/UJE0H5CXCKWD2TANPWO6Y2.uasset",
				"C:/Users/wolk1/OneDrive/Documents/Unreal Projects/tps/Content/__ExternalActors__/Map/TopDownMap/8/4E/LU9S7PS7UNV5Q6LX299CZ9.uasset",
				"C:/Users/wolk1/OneDrive/Documents/Unreal Projects/tps/Content/__ExternalActors__/Map/TopDownMap/0/L3/BNEKNKFOUBYYC1W2DDSNVL.uasset",
				"C:/Users/wolk1/OneDrive/Documents/Unreal Projects/tps/Content/Map/TopDownMap.umap",
				"C:/Users/wolk1/OneDrive/Documents/Unreal Projects/tps/Content/TopDown/Maps/TopDownMap.umap",
				"C:/Users/wolk1/OneDrive/Documents/Unreal Projects/tps/Content/Map/TopDownMap_BuiltData.uasset",
				"C:/Users/wolk1/OneDrive/Documents/Unreal Projects/tps/Content/TopDown/Maps/TopDownMap_BuiltData.uasset",
				"C:/Users/wolk1/OneDrive/Documents/Unreal Projects/tps/Content/Blueprints/Character/BP_TopDownCharacter.uasset",
				"C:/Users/wolk1/OneDrive/Documents/Unreal Projects/tps/Content/Blueprints/Character/BP_TopDownPlayerController.uasset",
				"C:/Users/wolk1/OneDrive/Documents/Unreal Projects/tps/Content/TopDown/Blueprints/BP_TopDownPlayerController.uasset",
				"C:/Users/wolk1/OneDrive/Documents/Unreal Projects/tps/Content/TopDown/Blueprints/BP_TopDownCharacter.uasset",
				"C:/Users/wolk1/OneDrive/Documents/Unreal Projects/tps/Content/Blueprints/Game/BP_GameModeBase.uasset",
				"C:/Users/wolk1/OneDrive/Documents/Unreal Projects/tps/Content/Blueprints/Game/BP_GameMode.uasset",
				"C:/Users/wolk1/OneDrive/Documents/Unreal Projects/tps/Content/Blueprints/ActorComponent/InventorySystem.uasset",
				"C:/Users/wolk1/OneDrive/Documents/Unreal Projects/tps/Content/Blueprints/ActorComponent/HealthSystem.uasset",
				"C:/Users/wolk1/OneDrive/Documents/Unreal Projects/tps/Content/Blueprints/ActorComponent/Status/MainStatusComponent.uasset",
				"C:/Users/wolk1/OneDrive/Documents/Unreal Projects/tps/Content/Blueprints/Character/Mannequin_UE4/Animations/Jog_Fwd.uasset",
				"C:/Users/wolk1/OneDrive/Documents/Unreal Projects/tps/Content/Blueprints/Character/Mannequin_UE4/Materials/M_MannequinUE4_ChestLogo.uasset",
				"C:/Users/wolk1/OneDrive/Documents/Unreal Projects/tps/Content/Blueprints/Character/Mannequin_UE4/Materials/M_MannequinUE4_Body.uasset",
				"C:/Users/wolk1/OneDrive/Documents/Unreal Projects/tps/Content/Blueprints/Character/Mannequin_UE4/Materials/Layers/ML_SoftMetal.uasset",
				"C:/Users/wolk1/OneDrive/Documents/Unreal Projects/tps/Content/Blueprints/Character/Mannequin_UE4/Materials/Layers/ML_ShinyPlastic_Beige_Logo.uasset",
				"C:/Users/wolk1/OneDrive/Documents/Unreal Projects/tps/Content/Blueprints/Character/Mannequin_UE4/Materials/Layers/ML_ShinyPlastic_Beige.uasset",
				"C:/Users/wolk1/OneDrive/Documents/Unreal Projects/tps/Content/Blueprints/Character/Mannequin_UE4/Materials/Layers/ML_Latex_Black.uasset",
				"C:/Users/wolk1/OneDrive/Documents/Unreal Projects/tps/Content/Blueprints/Character/Mannequin_UE4/Meshes/SK_Mannequin_Skeleton.uasset",
				"C:/Users/wolk1/OneDrive/Documents/Unreal Projects/tps/Content/Blueprints/Character/Mannequin_UE4/Meshes/SK_Mannequin_PhysicsAsset.uasset",
				"C:/Users/wolk1/OneDrive/Documents/Unreal Projects/tps/Content/Blueprints/Character/Mannequin_UE4/Meshes/SK_Mannequin.uasset",
				"C:/Users/wolk1/OneDrive/Documents/Unreal Projects/tps/Content/Blueprints/Character/Mannequin_UE4/Rigs/RTG_UE5Manny_UE4Manny.uasset",
				"C:/Users/wolk1/OneDrive/Documents/Unreal Projects/tps/Content/Blueprints/Character/Mannequin_UE4/Rigs/RTG_UE4Manny_UE5Manny.uasset",
				"C:/Users/wolk1/OneDrive/Documents/Unreal Projects/tps/Content/Blueprints/Character/Mannequin_UE4/Rigs/IK_UE4_Mannequin.uasset",
				"C:/Users/wolk1/OneDrive/Documents/Unreal Projects/tps/Content/Blueprints/Character/Mannequin_UE4/Textures/T_UELogo_N_TGA.uasset",
				"C:/Users/wolk1/OneDrive/Documents/Unreal Projects/tps/Content/Blueprints/Character/Mannequin_UE4/Textures/T_UELogo_Mask.uasset",
				"C:/Users/wolk1/OneDrive/Documents/Unreal Projects/tps/Content/Blueprints/Character/Mannequin_UE4/Textures/T_UE4_Mannequin__normals.uasset",
				"C:/Users/wolk1/OneDrive/Documents/Unreal Projects/tps/Content/Blueprints/Character/Mannequin_UE4/Textures/T_UE4_Mannequin_MAT_MASKA.uasset",
				"C:/Users/wolk1/OneDrive/Documents/Unreal Projects/tps/Content/Blueprints/Character/Mannequin_UE4/Textures/T_ML_Rubber_Blue_01_N.uasset",
				"C:/Users/wolk1/OneDrive/Documents/Unreal Projects/tps/Content/Blueprints/Character/Mannequin_UE4/Textures/T_ML_Rubber_Blue_01_D.uasset",
				"C:/Users/wolk1/OneDrive/Documents/Unreal Projects/tps/Content/Blueprints/Character/Mannequin_UE4/Textures/T_ML_Aluminum01_N.uasset",
				"C:/Users/wolk1/OneDrive/Documents/Unreal Projects/tps/Content/Blueprints/Character/Mannequin_UE4/Textures/T_ML_Aluminum01.uasset",
				"C:/Users/wolk1/OneDrive/Documents/Unreal Projects/tps/Content/Characters/Mannequin_UE4/Textures/T_ML_Aluminum01.uasset",
				"C:/Users/wolk1/OneDrive/Documents/Unreal Projects/tps/Content/Characters/Mannequin_UE4/Textures/T_ML_Aluminum01_N.uasset",
				"C:/Users/wolk1/OneDrive/Documents/Unreal Projects/tps/Content/Characters/Mannequin_UE4/Textures/T_ML_Rubber_Blue_01_D.uasset",
				"C:/Users/wolk1/OneDrive/Documents/Unreal Projects/tps/Content/Characters/Mannequin_UE4/Textures/T_ML_Rubber_Blue_01_N.uasset",
				"C:/Users/wolk1/OneDrive/Documents/Unreal Projects/tps/Content/Characters/Mannequin_UE4/Textures/T_UE4_Mannequin_MAT_MASKA.uasset",
				"C:/Users/wolk1/OneDrive/Documents/Unreal Projects/tps/Content/Characters/Mannequin_UE4/Textures/T_UE4_Mannequin__normals.uasset",
				"C:/Users/wolk1/OneDrive/Documents/Unreal Projects/tps/Content/Characters/Mannequin_UE4/Textures/T_UELogo_Mask.uasset",
				"C:/Users/wolk1/OneDrive/Documents/Unreal Projects/tps/Content/Characters/Mannequin_UE4/Textures/T_UELogo_N_TGA.uasset",
				"C:/Users/wolk1/OneDrive/Documents/Unreal Projects/tps/Content/Characters/Mannequin_UE4/Rigs/IK_UE4_Mannequin.uasset",
				"C:/Users/wolk1/OneDrive/Documents/Unreal Projects/tps/Content/Characters/Mannequin_UE4/Rigs/RTG_UE4Manny_UE5Manny.uasset",
				"C:/Users/wolk1/OneDrive/Documents/Unreal Projects/tps/Content/Characters/Mannequin_UE4/Rigs/RTG_UE5Manny_UE4Manny.uasset",
				"C:/Users/wolk1/OneDrive/Documents/Unreal Projects/tps/Content/Characters/Mannequin_UE4/Meshes/SK_Mannequin.uasset",
				"C:/Users/wolk1/OneDrive/Documents/Unreal Projects/tps/Content/Characters/Mannequin_UE4/Meshes/SK_Mannequin_PhysicsAsset.uasset",
				"C:/Users/wolk1/OneDrive/Documents/Unreal Projects/tps/Content/Characters/Mannequin_UE4/Meshes/SK_Mannequin_Skeleton.uasset",
				"C:/Users/wolk1/OneDrive/Documents/Unreal Projects/tps/Content/Characters/Mannequin_UE4/Materials/Layers/ML_Latex_Black.uasset",
				"C:/Users/wolk1/OneDrive/Documents/Unreal Projects/tps/Content/Characters/Mannequin_UE4/Materials/Layers/ML_ShinyPlastic_Beige.uasset",
				"C:/Users/wolk1/OneDrive/Documents/Unreal Projects/tps/Content/Characters/Mannequin_UE4/Materials/Layers/ML_ShinyPlastic_Beige_Logo.uasset",
				"C:/Users/wolk1/OneDrive/Documents/Unreal Projects/tps/Content/Characters/Mannequin_UE4/Materials/Layers/ML_SoftMetal.uasset",
				"C:/Users/wolk1/OneDrive/Documents/Unreal Projects/tps/Content/Characters/Mannequin_UE4/Materials/M_MannequinUE4_Body.uasset",
				"C:/Users/wolk1/OneDrive/Documents/Unreal Projects/tps/Content/Characters/Mannequin_UE4/Materials/M_MannequinUE4_ChestLogo.uasset",
				"C:/Users/wolk1/OneDrive/Documents/Unreal Projects/tps/Content/Characters/Mannequin_UE4/Animations/Jog_Fwd.uasset",
				"C:/Users/wolk1/OneDrive/Documents/Unreal Projects/tps/Content/Blueprints/Character/Mannequins/Meshes/SK_Mannequin.uasset",
				"C:/Users/wolk1/OneDrive/Documents/Unreal Projects/tps/Content/Blueprints/Character/Mannequins/Animations/Manny/MM_Fall_Loop.uasset",
				"C:/Users/wolk1/OneDrive/Documents/Unreal Projects/tps/Content/Blueprints/Character/Mannequins/Animations/Manny/MM_Idle.uasset",
				"C:/Users/wolk1/OneDrive/Documents/Unreal Projects/tps/Content/Blueprints/Character/Mannequins/Animations/Manny/MM_Jump.uasset",
				"C:/Users/wolk1/OneDrive/Documents/Unreal Projects/tps/Content/Blueprints/Character/Mannequins/Animations/Manny/MM_Land.uasset",
				"C:/Users/wolk1/OneDrive/Documents/Unreal Projects/tps/Content/Blueprints/Character/Mannequins/Animations/Manny/MM_Run_Fwd.uasset",
				"C:/Users/wolk1/OneDrive/Documents/Unreal Projects/tps/Content/Blueprints/Character/Mannequins/Animations/Manny/MM_Walk_Fwd.uasset",
				"C:/Users/wolk1/OneDrive/Documents/Unreal Projects/tps/Content/Blueprints/Character/Mannequins/Animations/Manny/MM_Walk_InPlace.uasset",
				"C:/Users/wolk1/OneDrive/Documents/Unreal Projects/tps/Content/Blueprints/Character/Mannequins/Animations/Manny/BS_MM_WalkRun.uasset",
				"C:/Users/wolk1/OneDrive/Documents/Unreal Projects/tps/Content/Blueprints/Character/Mannequins/Rigs/CR_Mannequin_BasicFootIK.uasset",
				"C:/Users/wolk1/OneDrive/Documents/Unreal Projects/tps/Content/Blueprints/Character/Mannequins/Animations/ABP_Manny.uasset",
				"C:/Users/wolk1/OneDrive/Documents/Unreal Projects/tps/Content/Blueprints/Character/Mannequins/Textures/Manny/T_Manny_02_D.uasset",
				"C:/Users/wolk1/OneDrive/Documents/Unreal Projects/tps/Content/Blueprints/Character/Mannequins/Textures/Manny/T_Manny_02_CCRCCPlastic_MSK.uasset",
				"C:/Users/wolk1/OneDrive/Documents/Unreal Projects/tps/Content/Blueprints/Character/Mannequins/Animations/Quinn/MF_Idle.uasset",
				"C:/Users/wolk1/OneDrive/Documents/Unreal Projects/tps/Content/Blueprints/Character/Mannequins/Animations/Quinn/MF_Run_Fwd.uasset",
				"C:/Users/wolk1/OneDrive/Documents/Unreal Projects/tps/Content/Blueprints/Character/Mannequins/Animations/Quinn/MF_Walk_Fwd.uasset",
				"C:/Users/wolk1/OneDrive/Documents/Unreal Projects/tps/Content/Blueprints/Character/Mannequins/Animations/Quinn/BS_MF_Unarmed_WalkRun.uasset",
				"C:/Users/wolk1/OneDrive/Documents/Unreal Projects/tps/Content/Blueprints/Character/Mannequins/Animations/ABP_Quinn.uasset",
				"C:/Users/wolk1/OneDrive/Documents/Unreal Projects/tps/Content/Blueprints/Character/Mannequins/Rigs/CR_Mannequin_Procedural.uasset",
				"C:/Users/wolk1/OneDrive/Documents/Unreal Projects/tps/Content/Blueprints/Character/Mannequins/Rigs/Poses/Quinn/Quinn_calf_l_anim.uasset",
				"C:/Users/wolk1/OneDrive/Documents/Unreal Projects/tps/Content/Blueprints/Character/Mannequins/Rigs/Poses/Quinn/Quinn_calf_l_pose.uasset",
				"C:/Users/wolk1/OneDrive/Documents/Unreal Projects/tps/Content/Blueprints/Character/Mannequins/Rigs/Poses/Quinn/Quinn_calf_r_anim.uasset",
				"C:/Users/wolk1/OneDrive/Documents/Unreal Projects/tps/Content/Blueprints/Character/Mannequins/Rigs/Poses/Quinn/Quinn_calf_r_pose.uasset",
				"C:/Users/wolk1/OneDrive/Documents/Unreal Projects/tps/Content/Blueprints/Character/Mannequins/Rigs/Poses/Quinn/Quinn_clavicle_l_anim.uasset",
				"C:/Users/wolk1/OneDrive/Documents/Unreal Projects/tps/Content/Blueprints/Character/Mannequins/Rigs/Poses/Quinn/Quinn_clavicle_l_pose.uasset",
				"C:/Users/wolk1/OneDrive/Documents/Unreal Projects/tps/Content/Blueprints/Character/Mannequins/Rigs/Poses/Quinn/Quinn_clavicle_r_anim.uasset",
				"C:/Users/wolk1/OneDrive/Documents/Unreal Projects/tps/Content/Blueprints/Character/Mannequins/Rigs/Poses/Quinn/Quinn_clavicle_r_pose.uasset",
				"C:/Users/wolk1/OneDrive/Documents/Unreal Projects/tps/Content/Blueprints/Character/Mannequins/Rigs/Poses/Quinn/Quinn_foot_l_anim.uasset",
				"C:/Users/wolk1/OneDrive/Documents/Unreal Projects/tps/Content/Blueprints/Character/Mannequins/Rigs/Poses/Quinn/Quinn_foot_l_pose.uasset",
				"C:/Users/wolk1/OneDrive/Documents/Unreal Projects/tps/Content/Blueprints/Character/Mannequins/Rigs/Poses/Quinn/Quinn_foot_r_anim.uasset",
				"C:/Users/wolk1/OneDrive/Documents/Unreal Projects/tps/Content/Blueprints/Character/Mannequins/Rigs/Poses/Quinn/Quinn_foot_r_pose.uasset",
				"C:/Users/wolk1/OneDrive/Documents/Unreal Projects/tps/Content/Blueprints/Character/Mannequins/Rigs/Poses/Quinn/Quinn_hand_l_anim.uasset",
				"C:/Users/wolk1/OneDrive/Documents/Unreal Projects/tps/Content/Blueprints/Character/Mannequins/Rigs/Poses/Quinn/Quinn_hand_l_pose.uasset",
				"C:/Users/wolk1/OneDrive/Documents/Unreal Projects/tps/Content/Blueprints/Character/Mannequins/Rigs/Poses/Quinn/Quinn_hand_r_anim.uasset",
				"C:/Users/wolk1/OneDrive/Documents/Unreal Projects/tps/Content/Blueprints/Character/Mannequins/Rigs/Poses/Quinn/Quinn_hand_r_pose.uasset",
				"C:/Users/wolk1/OneDrive/Documents/Unreal Projects/tps/Content/Blueprints/Character/Mannequins/Rigs/Poses/Quinn/Quinn_lowerarm_l_anim.uasset",
				"C:/Users/wolk1/OneDrive/Documents/Unreal Projects/tps/Content/Blueprints/Character/Mannequins/Rigs/Poses/Quinn/Quinn_lowerarm_l_pose.uasset",
				"C:/Users/wolk1/OneDrive/Documents/Unreal Projects/tps/Content/Blueprints/Character/Mannequins/Rigs/Poses/Quinn/Quinn_lowerarm_r_anim.uasset",
				"C:/Users/wolk1/OneDrive/Documents/Unreal Projects/tps/Content/Blueprints/Character/Mannequins/Rigs/Poses/Quinn/Quinn_lowerarm_r_pose.uasset",
				"C:/Users/wolk1/OneDrive/Documents/Unreal Projects/tps/Content/Blueprints/Character/Mannequins/Rigs/Poses/Quinn/Quinn_thigh_l_anim.uasset",
				"C:/Users/wolk1/OneDrive/Documents/Unreal Projects/tps/Content/Blueprints/Character/Mannequins/Rigs/Poses/Quinn/Quinn_thigh_l_pose.uasset",
				"C:/Users/wolk1/OneDrive/Documents/Unreal Projects/tps/Content/Blueprints/Character/Mannequins/Rigs/Poses/Quinn/Quinn_thigh_r_anim.uasset",
				"C:/Users/wolk1/OneDrive/Documents/Unreal Projects/tps/Content/Blueprints/Character/Mannequins/Rigs/Poses/Quinn/Quinn_thigh_r_pose.uasset",
				"C:/Users/wolk1/OneDrive/Documents/Unreal Projects/tps/Content/Blueprints/Character/Mannequins/Rigs/Poses/Quinn/Quinn_upperarm_l_anim.uasset",
				"C:/Users/wolk1/OneDrive/Documents/Unreal Projects/tps/Content/Blueprints/Character/Mannequins/Rigs/Poses/Quinn/Quinn_upperarm_l_pose.uasset",
				"C:/Users/wolk1/OneDrive/Documents/Unreal Projects/tps/Content/Blueprints/Character/Mannequins/Rigs/Poses/Quinn/Quinn_upperarm_r_anim.uasset",
				"C:/Users/wolk1/OneDrive/Documents/Unreal Projects/tps/Content/Blueprints/Character/Mannequins/Rigs/Poses/Quinn/Quinn_upperarm_r_pose.uasset",
				"C:/Users/wolk1/OneDrive/Documents/Unreal Projects/tps/Content/Blueprints/Character/Mannequins/Rigs/ABP_Quinn_PostProcess.uasset",
				"C:/Users/wolk1/OneDrive/Documents/Unreal Projects/tps/Content/Blueprints/Character/Mannequins/Materials/Functions/ChromaticCurve.uasset",
				"C:/Users/wolk1/OneDrive/Documents/Unreal Projects/tps/Content/Blueprints/Character/Mannequins/Materials/Functions/CA_Mannequin.uasset",
				"C:/Users/wolk1/OneDrive/Documents/Unreal Projects/tps/Content/Blueprints/Character/Mannequins/Materials/Functions/MF_Diffraction.uasset",
				"C:/Users/wolk1/OneDrive/Documents/Unreal Projects/tps/Content/Blueprints/Character/Mannequins/Textures/Shared/T_UE_Logo_M.uasset",
				"C:/Users/wolk1/OneDrive/Documents/Unreal Projects/tps/Content/Blueprints/Character/Mannequins/Materials/Functions/MF_logo3layers.uasset",
				"C:/Users/wolk1/OneDrive/Documents/Unreal Projects/tps/Content/Blueprints/Character/Mannequins/Materials/Functions/ML_BaseColorFallOff.uasset",
				"C:/Users/wolk1/OneDrive/Documents/Unreal Projects/tps/Content/Blueprints/Character/Mannequins/Textures/Manny/T_Manny_01_ASAOPMASK_MSK.uasset",
				"C:/Users/wolk1/OneDrive/Documents/Unreal Projects/tps/Content/Blueprints/Character/Mannequins/Textures/Manny/T_Manny_01_BN.uasset",
				"C:/Users/wolk1/OneDrive/Documents/Unreal Projects/tps/Content/Blueprints/Character/Mannequins/Textures/Manny/T_Manny_01_CCRCCPlastic_MSK.uasset",
				"C:/Users/wolk1/OneDrive/Documents/Unreal Projects/tps/Content/Blueprints/Character/Mannequins/Textures/Manny/T_Manny_01_D.uasset",
				"C:/Users/wolk1/OneDrive/Documents/Unreal Projects/tps/Content/Blueprints/Character/Mannequins/Textures/Manny/T_Manny_01_MSR_MSK.uasset",
				"C:/Users/wolk1/OneDrive/Documents/Unreal Projects/tps/Content/Blueprints/Character/Mannequins/Textures/Manny/T_Manny_01_N.uasset",
				"C:/Users/wolk1/OneDrive/Documents/Unreal Projects/tps/Content/Blueprints/Character/Mannequins/Textures/Manny/T_Manny_01_Tan.uasset",
				"C:/Users/wolk1/OneDrive/Documents/Unreal Projects/tps/Content/Blueprints/Character/Mannequins/Materials/M_Mannequin.uasset",
				"C:/Users/wolk1/OneDrive/Documents/Unreal Projects/tps/Content/Blueprints/Character/Mannequins/Textures/Quinn/T_Quinn_01_ASAOMASK_MSK.uasset",
				"C:/Users/wolk1/OneDrive/Documents/Unreal Projects/tps/Content/Blueprints/Character/Mannequins/Textures/Quinn/T_Quinn_01_CCRCCPlastic_MSK.uasset",
				"C:/Users/wolk1/OneDrive/Documents/Unreal Projects/tps/Content/Blueprints/Character/Mannequins/Textures/Quinn/T_Quinn_01ID_BN.uasset",
				"C:/Users/wolk1/OneDrive/Documents/Unreal Projects/tps/Content/Blueprints/Character/Mannequins/Textures/Quinn/T_Quinn_01ID_D.uasset",
				"C:/Users/wolk1/OneDrive/Documents/Unreal Projects/tps/Content/Blueprints/Character/Mannequins/Textures/Quinn/T_Quinn_01ID_MSR_MSK.uasset",
				"C:/Users/wolk1/OneDrive/Documents/Unreal Projects/tps/Content/Blueprints/Character/Mannequins/Textures/Quinn/T_Quinn_01ID_N.uasset",
				"C:/Users/wolk1/OneDrive/Documents/Unreal Projects/tps/Content/Blueprints/Character/Mannequins/Textures/Quinn/T_Quinn_01ID_Tan.uasset",
				"C:/Users/wolk1/OneDrive/Documents/Unreal Projects/tps/Content/Blueprints/Character/Mannequins/Materials/Instances/Quinn/MI_Quinn_01.uasset",
				"C:/Users/wolk1/OneDrive/Documents/Unreal Projects/tps/Content/Blueprints/Character/Mannequins/Textures/Quinn/T_Quinn_02_ASAOMASK_MSK.uasset",
				"C:/Users/wolk1/OneDrive/Documents/Unreal Projects/tps/Content/Blueprints/Character/Mannequins/Textures/Quinn/T_Quinn_02_CCRCCPlastic_MSK.uasset",
				"C:/Users/wolk1/OneDrive/Documents/Unreal Projects/tps/Content/Blueprints/Character/Mannequins/Textures/Quinn/T_Quinn_02ID_BN.uasset",
				"C:/Users/wolk1/OneDrive/Documents/Unreal Projects/tps/Content/Blueprints/Character/Mannequins/Textures/Quinn/T_Quinn_02ID_D.uasset",
				"C:/Users/wolk1/OneDrive/Documents/Unreal Projects/tps/Content/Blueprints/Character/Mannequins/Textures/Quinn/T_Quinn_02ID_MSR_MSK.uasset",
				"C:/Users/wolk1/OneDrive/Documents/Unreal Projects/tps/Content/Blueprints/Character/Mannequins/Textures/Quinn/T_Quinn_02ID_N.uasset",
				"C:/Users/wolk1/OneDrive/Documents/Unreal Projects/tps/Content/Blueprints/Character/Mannequins/Textures/Quinn/T_Quinn_02ID_Tan.uasset",
				"C:/Users/wolk1/OneDrive/Documents/Unreal Projects/tps/Content/Blueprints/Character/Mannequins/Materials/Instances/Quinn/MI_Quinn_02.uasset",
				"C:/Users/wolk1/OneDrive/Documents/Unreal Projects/tps/Content/Blueprints/Character/Mannequins/Rigs/PA_Mannequin.uasset",
				"C:/Users/wolk1/OneDrive/Documents/Unreal Projects/tps/Content/Blueprints/Character/Mannequins/Meshes/SKM_Quinn.uasset",
				"C:/Users/wolk1/OneDrive/Documents/Unreal Projects/tps/Content/Blueprints/Character/Mannequins/Textures/Manny/T_Manny_02_BN.uasset",
				"C:/Users/wolk1/OneDrive/Documents/Unreal Projects/tps/Content/Blueprints/Character/Mannequins/Textures/Manny/T_Manny_02_ASAOPMASK_MSK.uasset",
				"C:/Users/wolk1/OneDrive/Documents/Unreal Projects/tps/Content/Blueprints/Character/Mannequins/Materials/Instances/Manny/MI_Manny_01.uasset",
				"C:/Users/wolk1/OneDrive/Documents/Unreal Projects/tps/Content/Blueprints/Character/Mannequins/Textures/Manny/T_Manny_02_MSR_MSK.uasset",
				"C:/Users/wolk1/OneDrive/Documents/Unreal Projects/tps/Content/Blueprints/Character/Mannequins/Textures/Manny/T_Manny_02_N.uasset",
				"C:/Users/wolk1/OneDrive/Documents/Unreal Projects/tps/Content/Blueprints/Character/Mannequins/Textures/Manny/T_Manny_02_Tan.uasset",
				"C:/Users/wolk1/OneDrive/Documents/Unreal Projects/tps/Content/Blueprints/Character/Mannequins/Materials/Instances/Manny/MI_Manny_02.uasset",
				"C:/Users/wolk1/OneDrive/Documents/Unreal Projects/tps/Content/Blueprints/Character/Mannequins/Meshes/SKM_Manny_Simple.uasset",
				"C:/Users/wolk1/OneDrive/Documents/Unreal Projects/tps/Content/Blueprints/Character/Mannequins/Meshes/SKM_Quinn_Simple.uasset",
				"C:/Users/wolk1/OneDrive/Documents/Unreal Projects/tps/Content/Blueprints/Character/Mannequins/Rigs/ABP_Manny_PostProcess.uasset",
				"C:/Users/wolk1/OneDrive/Documents/Unreal Projects/tps/Content/Blueprints/Character/Mannequins/Rigs/Poses/Manny/Manny_upperarm_r_pose.uasset",
				"C:/Users/wolk1/OneDrive/Documents/Unreal Projects/tps/Content/Blueprints/Character/Mannequins/Rigs/Poses/Manny/Manny_upperarm_r_anim.uasset",
				"C:/Users/wolk1/OneDrive/Documents/Unreal Projects/tps/Content/Blueprints/Character/Mannequins/Rigs/Poses/Manny/Manny_upperarm_l_pose.uasset",
				"C:/Users/wolk1/OneDrive/Documents/Unreal Projects/tps/Content/Blueprints/Character/Mannequins/Rigs/Poses/Manny/Manny_upperarm_l_anim.uasset",
				"C:/Users/wolk1/OneDrive/Documents/Unreal Projects/tps/Content/Blueprints/Character/Mannequins/Rigs/Poses/Manny/Manny_thigh_r_pose.uasset",
				"C:/Users/wolk1/OneDrive/Documents/Unreal Projects/tps/Content/Blueprints/Character/Mannequins/Rigs/Poses/Manny/Manny_thigh_r_anim.uasset",
				"C:/Users/wolk1/OneDrive/Documents/Unreal Projects/tps/Content/Blueprints/Character/Mannequins/Rigs/Poses/Manny/Manny_thigh_l_pose.uasset",
				"C:/Users/wolk1/OneDrive/Documents/Unreal Projects/tps/Content/Blueprints/Character/Mannequins/Rigs/Poses/Manny/Manny_thigh_l_anim.uasset",
				"C:/Users/wolk1/OneDrive/Documents/Unreal Projects/tps/Content/Blueprints/Character/Mannequins/Rigs/Poses/Manny/Manny_lowerarm_r_pose.uasset",
				"C:/Users/wolk1/OneDrive/Documents/Unreal Projects/tps/Content/Blueprints/Character/Mannequins/Rigs/Poses/Manny/Manny_lowerarm_r_anim.uasset",
				"C:/Users/wolk1/OneDrive/Documents/Unreal Projects/tps/Content/Blueprints/Character/Mannequins/Rigs/Poses/Manny/Manny_lowerarm_l_pose.uasset",
				"C:/Users/wolk1/OneDrive/Documents/Unreal Projects/tps/Content/Blueprints/Character/Mannequins/Rigs/Poses/Manny/Manny_lowerarm_l_anim.uasset",
				"C:/Users/wolk1/OneDrive/Documents/Unreal Projects/tps/Content/Blueprints/Character/Mannequins/Rigs/Poses/Manny/Manny_hand_r_pose.uasset",
				"C:/Users/wolk1/OneDrive/Documents/Unreal Projects/tps/Content/Blueprints/Character/Mannequins/Rigs/Poses/Manny/Manny_hand_r_anim.uasset",
				"C:/Users/wolk1/OneDrive/Documents/Unreal Projects/tps/Content/Blueprints/Character/Mannequins/Rigs/Poses/Manny/Manny_hand_l_pose.uasset",
				"C:/Users/wolk1/OneDrive/Documents/Unreal Projects/tps/Content/Blueprints/Character/Mannequins/Rigs/Poses/Manny/Manny_hand_l_anim.uasset",
				"C:/Users/wolk1/OneDrive/Documents/Unreal Projects/tps/Content/Blueprints/Character/Mannequins/Rigs/Poses/Manny/Manny_foot_r_pose.uasset",
				"C:/Users/wolk1/OneDrive/Documents/Unreal Projects/tps/Content/Blueprints/Character/Mannequins/Rigs/Poses/Manny/Manny_foot_r_anim.uasset",
				"C:/Users/wolk1/OneDrive/Documents/Unreal Projects/tps/Content/Blueprints/Character/Mannequins/Rigs/Poses/Manny/Manny_foot_l_pose.uasset",
				"C:/Users/wolk1/OneDrive/Documents/Unreal Projects/tps/Content/Blueprints/Character/Mannequins/Rigs/Poses/Manny/Manny_foot_l_anim.uasset",
				"C:/Users/wolk1/OneDrive/Documents/Unreal Projects/tps/Content/Blueprints/Character/Mannequins/Rigs/Poses/Manny/Manny_clavicle_r_pose.uasset",
				"C:/Users/wolk1/OneDrive/Documents/Unreal Projects/tps/Content/Blueprints/Character/Mannequins/Rigs/Poses/Manny/Manny_clavicle_r_anim.uasset",
				"C:/Users/wolk1/OneDrive/Documents/Unreal Projects/tps/Content/Blueprints/Character/Mannequins/Rigs/Poses/Manny/Manny_clavicle_l_pose.uasset",
				"C:/Users/wolk1/OneDrive/Documents/Unreal Projects/tps/Content/Blueprints/Character/Mannequins/Rigs/Poses/Manny/Manny_clavicle_l_anim.uasset",
				"C:/Users/wolk1/OneDrive/Documents/Unreal Projects/tps/Content/Blueprints/Character/Mannequins/Rigs/Poses/Manny/Manny_calf_r_pose.uasset",
				"C:/Users/wolk1/OneDrive/Documents/Unreal Projects/tps/Content/Blueprints/Character/Mannequins/Rigs/Poses/Manny/Manny_calf_r_anim.uasset",
				"C:/Users/wolk1/OneDrive/Documents/Unreal Projects/tps/Content/Blueprints/Character/Mannequins/Rigs/Poses/Manny/Manny_calf_l_pose.uasset",
				"C:/Users/wolk1/OneDrive/Documents/Unreal Projects/tps/Content/Blueprints/Character/Mannequins/Rigs/Poses/Manny/Manny_calf_l_anim.uasset",
				"C:/Users/wolk1/OneDrive/Documents/Unreal Projects/tps/Content/Blueprints/Character/Mannequins/Meshes/SKM_Manny.uasset",
				"C:/Users/wolk1/OneDrive/Documents/Unreal Projects/tps/Content/Blueprints/Character/Mannequins/Animations/Manny/MM_T_Pose.uasset",
				"C:/Users/wolk1/OneDrive/Documents/Unreal Projects/tps/Content/Blueprints/Character/Mannequins/Meshes/Mannequin_LODSettings.uasset",
				"C:/Users/wolk1/OneDrive/Documents/Unreal Projects/tps/Content/Blueprints/Character/Mannequins/Rigs/CR_Mannequin_Body.uasset",
				"C:/Users/wolk1/OneDrive/Documents/Unreal Projects/tps/Content/Blueprints/Character/Mannequins/Rigs/IK_Mannequin.uasset",
				"C:/Users/wolk1/OneDrive/Documents/Unreal Projects/tps/Content/Blueprints/Character/Mannequins/Rigs/RTG_Mannequin.uasset",
				"C:/Users/wolk1/OneDrive/Documents/Unreal Projects/tps/Content/Characters/Mannequins/Rigs/RTG_Mannequin.uasset",
				"C:/Users/wolk1/OneDrive/Documents/Unreal Projects/tps/Content/Characters/Mannequins/Rigs/IK_Mannequin.uasset",
				"C:/Users/wolk1/OneDrive/Documents/Unreal Projects/tps/Content/Characters/Mannequins/Rigs/CR_Mannequin_Body.uasset",
				"C:/Users/wolk1/OneDrive/Documents/Unreal Projects/tps/Content/Characters/Mannequins/Meshes/Mannequin_LODSettings.uasset",
				"C:/Users/wolk1/OneDrive/Documents/Unreal Projects/tps/Content/Characters/Mannequins/Animations/Manny/MM_T_Pose.uasset",
				"C:/Users/wolk1/OneDrive/Documents/Unreal Projects/tps/Content/Characters/Mannequins/Meshes/SKM_Manny.uasset",
				"C:/Users/wolk1/OneDrive/Documents/Unreal Projects/tps/Content/Characters/Mannequins/Rigs/Poses/Manny/Manny_calf_l_anim.uasset",
				"C:/Users/wolk1/OneDrive/Documents/Unreal Projects/tps/Content/Characters/Mannequins/Rigs/Poses/Manny/Manny_calf_l_pose.uasset",
				"C:/Users/wolk1/OneDrive/Documents/Unreal Projects/tps/Content/Characters/Mannequins/Rigs/Poses/Manny/Manny_calf_r_anim.uasset",
				"C:/Users/wolk1/OneDrive/Documents/Unreal Projects/tps/Content/Characters/Mannequins/Rigs/Poses/Manny/Manny_calf_r_pose.uasset",
				"C:/Users/wolk1/OneDrive/Documents/Unreal Projects/tps/Content/Characters/Mannequins/Rigs/Poses/Manny/Manny_clavicle_l_anim.uasset",
				"C:/Users/wolk1/OneDrive/Documents/Unreal Projects/tps/Content/Characters/Mannequins/Rigs/Poses/Manny/Manny_clavicle_l_pose.uasset",
				"C:/Users/wolk1/OneDrive/Documents/Unreal Projects/tps/Content/Characters/Mannequins/Rigs/Poses/Manny/Manny_clavicle_r_anim.uasset",
				"C:/Users/wolk1/OneDrive/Documents/Unreal Projects/tps/Content/Characters/Mannequins/Rigs/Poses/Manny/Manny_clavicle_r_pose.uasset",
				"C:/Users/wolk1/OneDrive/Documents/Unreal Projects/tps/Content/Characters/Mannequins/Rigs/Poses/Manny/Manny_foot_l_anim.uasset",
				"C:/Users/wolk1/OneDrive/Documents/Unreal Projects/tps/Content/Characters/Mannequins/Rigs/Poses/Manny/Manny_foot_l_pose.uasset",
				"C:/Users/wolk1/OneDrive/Documents/Unreal Projects/tps/Content/Characters/Mannequins/Rigs/Poses/Manny/Manny_foot_r_anim.uasset",
				"C:/Users/wolk1/OneDrive/Documents/Unreal Projects/tps/Content/Characters/Mannequins/Rigs/Poses/Manny/Manny_foot_r_pose.uasset",
				"C:/Users/wolk1/OneDrive/Documents/Unreal Projects/tps/Content/Characters/Mannequins/Rigs/Poses/Manny/Manny_hand_l_anim.uasset",
				"C:/Users/wolk1/OneDrive/Documents/Unreal Projects/tps/Content/Characters/Mannequins/Rigs/Poses/Manny/Manny_hand_l_pose.uasset",
				"C:/Users/wolk1/OneDrive/Documents/Unreal Projects/tps/Content/Characters/Mannequins/Rigs/Poses/Manny/Manny_hand_r_anim.uasset",
				"C:/Users/wolk1/OneDrive/Documents/Unreal Projects/tps/Content/Characters/Mannequins/Rigs/Poses/Manny/Manny_hand_r_pose.uasset",
				"C:/Users/wolk1/OneDrive/Documents/Unreal Projects/tps/Content/Characters/Mannequins/Rigs/Poses/Manny/Manny_lowerarm_l_anim.uasset",
				"C:/Users/wolk1/OneDrive/Documents/Unreal Projects/tps/Content/Characters/Mannequins/Rigs/Poses/Manny/Manny_lowerarm_l_pose.uasset",
				"C:/Users/wolk1/OneDrive/Documents/Unreal Projects/tps/Content/Characters/Mannequins/Rigs/Poses/Manny/Manny_lowerarm_r_anim.uasset",
				"C:/Users/wolk1/OneDrive/Documents/Unreal Projects/tps/Content/Characters/Mannequins/Rigs/Poses/Manny/Manny_lowerarm_r_pose.uasset",
				"C:/Users/wolk1/OneDrive/Documents/Unreal Projects/tps/Content/Characters/Mannequins/Rigs/Poses/Manny/Manny_thigh_l_anim.uasset",
				"C:/Users/wolk1/OneDrive/Documents/Unreal Projects/tps/Content/Characters/Mannequins/Rigs/Poses/Manny/Manny_thigh_l_pose.uasset",
				"C:/Users/wolk1/OneDrive/Documents/Unreal Projects/tps/Content/Characters/Mannequins/Rigs/Poses/Manny/Manny_thigh_r_anim.uasset",
				"C:/Users/wolk1/OneDrive/Documents/Unreal Projects/tps/Content/Characters/Mannequins/Rigs/Poses/Manny/Manny_thigh_r_pose.uasset",
				"C:/Users/wolk1/OneDrive/Documents/Unreal Projects/tps/Content/Characters/Mannequins/Rigs/Poses/Manny/Manny_upperarm_l_anim.uasset",
				"C:/Users/wolk1/OneDrive/Documents/Unreal Projects/tps/Content/Characters/Mannequins/Rigs/Poses/Manny/Manny_upperarm_l_pose.uasset",
				"C:/Users/wolk1/OneDrive/Documents/Unreal Projects/tps/Content/Characters/Mannequins/Rigs/Poses/Manny/Manny_upperarm_r_anim.uasset",
				"C:/Users/wolk1/OneDrive/Documents/Unreal Projects/tps/Content/Characters/Mannequins/Rigs/Poses/Manny/Manny_upperarm_r_pose.uasset",
				"C:/Users/wolk1/OneDrive/Documents/Unreal Projects/tps/Content/Characters/Mannequins/Rigs/ABP_Manny_PostProcess.uasset",
				"C:/Users/wolk1/OneDrive/Documents/Unreal Projects/tps/Content/Characters/Mannequins/Meshes/SKM_Quinn_Simple.uasset",
				"C:/Users/wolk1/OneDrive/Documents/Unreal Projects/tps/Content/Characters/Mannequins/Meshes/SKM_Manny_Simple.uasset",
				"C:/Users/wolk1/OneDrive/Documents/Unreal Projects/tps/Content/Characters/Mannequins/Materials/Instances/Manny/MI_Manny_02.uasset",
				"C:/Users/wolk1/OneDrive/Documents/Unreal Projects/tps/Content/Characters/Mannequins/Textures/Manny/T_Manny_02_Tan.uasset",
				"C:/Users/wolk1/OneDrive/Documents/Unreal Projects/tps/Content/Characters/Mannequins/Textures/Manny/T_Manny_02_N.uasset",
				"C:/Users/wolk1/OneDrive/Documents/Unreal Projects/tps/Content/Characters/Mannequins/Textures/Manny/T_Manny_02_MSR_MSK.uasset",
				"C:/Users/wolk1/OneDrive/Documents/Unreal Projects/tps/Content/Characters/Mannequins/Materials/Instances/Manny/MI_Manny_01.uasset",
				"C:/Users/wolk1/OneDrive/Documents/Unreal Projects/tps/Content/Characters/Mannequins/Textures/Manny/T_Manny_02_ASAOPMASK_MSK.uasset",
				"C:/Users/wolk1/OneDrive/Documents/Unreal Projects/tps/Content/Characters/Mannequins/Textures/Manny/T_Manny_02_BN.uasset",
				"C:/Users/wolk1/OneDrive/Documents/Unreal Projects/tps/Content/Characters/Mannequins/Meshes/SKM_Quinn.uasset",
				"C:/Users/wolk1/OneDrive/Documents/Unreal Projects/tps/Content/Characters/Mannequins/Rigs/PA_Mannequin.uasset",
				"C:/Users/wolk1/OneDrive/Documents/Unreal Projects/tps/Content/Characters/Mannequins/Materials/Instances/Quinn/MI_Quinn_02.uasset",
				"C:/Users/wolk1/OneDrive/Documents/Unreal Projects/tps/Content/Characters/Mannequins/Textures/Quinn/T_Quinn_02ID_Tan.uasset",
				"C:/Users/wolk1/OneDrive/Documents/Unreal Projects/tps/Content/Characters/Mannequins/Textures/Quinn/T_Quinn_02ID_N.uasset",
				"C:/Users/wolk1/OneDrive/Documents/Unreal Projects/tps/Content/Characters/Mannequins/Textures/Quinn/T_Quinn_02ID_MSR_MSK.uasset",
				"C:/Users/wolk1/OneDrive/Documents/Unreal Projects/tps/Content/Characters/Mannequins/Textures/Quinn/T_Quinn_02ID_D.uasset",
				"C:/Users/wolk1/OneDrive/Documents/Unreal Projects/tps/Content/Characters/Mannequins/Textures/Quinn/T_Quinn_02ID_BN.uasset",
				"C:/Users/wolk1/OneDrive/Documents/Unreal Projects/tps/Content/Characters/Mannequins/Textures/Quinn/T_Quinn_02_CCRCCPlastic_MSK.uasset",
				"C:/Users/wolk1/OneDrive/Documents/Unreal Projects/tps/Content/Characters/Mannequins/Textures/Quinn/T_Quinn_02_ASAOMASK_MSK.uasset",
				"C:/Users/wolk1/OneDrive/Documents/Unreal Projects/tps/Content/Characters/Mannequins/Materials/Instances/Quinn/MI_Quinn_01.uasset",
				"C:/Users/wolk1/OneDrive/Documents/Unreal Projects/tps/Content/Characters/Mannequins/Textures/Quinn/T_Quinn_01ID_Tan.uasset",
				"C:/Users/wolk1/OneDrive/Documents/Unreal Projects/tps/Content/Characters/Mannequins/Textures/Quinn/T_Quinn_01ID_N.uasset",
				"C:/Users/wolk1/OneDrive/Documents/Unreal Projects/tps/Content/Characters/Mannequins/Textures/Quinn/T_Quinn_01ID_MSR_MSK.uasset",
				"C:/Users/wolk1/OneDrive/Documents/Unreal Projects/tps/Content/Characters/Mannequins/Textures/Quinn/T_Quinn_01ID_D.uasset",
				"C:/Users/wolk1/OneDrive/Documents/Unreal Projects/tps/Content/Characters/Mannequins/Textures/Quinn/T_Quinn_01ID_BN.uasset",
				"C:/Users/wolk1/OneDrive/Documents/Unreal Projects/tps/Content/Characters/Mannequins/Textures/Quinn/T_Quinn_01_CCRCCPlastic_MSK.uasset",
				"C:/Users/wolk1/OneDrive/Documents/Unreal Projects/tps/Content/Characters/Mannequins/Textures/Quinn/T_Quinn_01_ASAOMASK_MSK.uasset",
				"C:/Users/wolk1/OneDrive/Documents/Unreal Projects/tps/Content/Characters/Mannequins/Materials/M_Mannequin.uasset",
				"C:/Users/wolk1/OneDrive/Documents/Unreal Projects/tps/Content/Characters/Mannequins/Textures/Manny/T_Manny_01_Tan.uasset",
				"C:/Users/wolk1/OneDrive/Documents/Unreal Projects/tps/Content/Characters/Mannequins/Textures/Manny/T_Manny_01_N.uasset",
				"C:/Users/wolk1/OneDrive/Documents/Unreal Projects/tps/Content/Characters/Mannequins/Textures/Manny/T_Manny_01_MSR_MSK.uasset",
				"C:/Users/wolk1/OneDrive/Documents/Unreal Projects/tps/Content/Characters/Mannequins/Textures/Manny/T_Manny_01_D.uasset",
				"C:/Users/wolk1/OneDrive/Documents/Unreal Projects/tps/Content/Characters/Mannequins/Textures/Manny/T_Manny_01_CCRCCPlastic_MSK.uasset",
				"C:/Users/wolk1/OneDrive/Documents/Unreal Projects/tps/Content/Characters/Mannequins/Textures/Manny/T_Manny_01_BN.uasset",
				"C:/Users/wolk1/OneDrive/Documents/Unreal Projects/tps/Content/Characters/Mannequins/Textures/Manny/T_Manny_01_ASAOPMASK_MSK.uasset",
				"C:/Users/wolk1/OneDrive/Documents/Unreal Projects/tps/Content/Characters/Mannequins/Materials/Functions/ML_BaseColorFallOff.uasset",
				"C:/Users/wolk1/OneDrive/Documents/Unreal Projects/tps/Content/Characters/Mannequins/Materials/Functions/MF_logo3layers.uasset",
				"C:/Users/wolk1/OneDrive/Documents/Unreal Projects/tps/Content/Characters/Mannequins/Textures/Shared/T_UE_Logo_M.uasset",
				"C:/Users/wolk1/OneDrive/Documents/Unreal Projects/tps/Content/Characters/Mannequins/Materials/Functions/MF_Diffraction.uasset",
				"C:/Users/wolk1/OneDrive/Documents/Unreal Projects/tps/Content/Characters/Mannequins/Materials/Functions/CA_Mannequin.uasset",
				"C:/Users/wolk1/OneDrive/Documents/Unreal Projects/tps/Content/Characters/Mannequins/Materials/Functions/ChromaticCurve.uasset",
				"C:/Users/wolk1/OneDrive/Documents/Unreal Projects/tps/Content/Characters/Mannequins/Rigs/ABP_Quinn_PostProcess.uasset",
				"C:/Users/wolk1/OneDrive/Documents/Unreal Projects/tps/Content/Characters/Mannequins/Rigs/Poses/Quinn/Quinn_upperarm_r_pose.uasset",
				"C:/Users/wolk1/OneDrive/Documents/Unreal Projects/tps/Content/Characters/Mannequins/Rigs/Poses/Quinn/Quinn_upperarm_r_anim.uasset",
				"C:/Users/wolk1/OneDrive/Documents/Unreal Projects/tps/Content/Characters/Mannequins/Rigs/Poses/Quinn/Quinn_upperarm_l_pose.uasset",
				"C:/Users/wolk1/OneDrive/Documents/Unreal Projects/tps/Content/Characters/Mannequins/Rigs/Poses/Quinn/Quinn_upperarm_l_anim.uasset",
				"C:/Users/wolk1/OneDrive/Documents/Unreal Projects/tps/Content/Characters/Mannequins/Rigs/Poses/Quinn/Quinn_thigh_r_pose.uasset",
				"C:/Users/wolk1/OneDrive/Documents/Unreal Projects/tps/Content/Characters/Mannequins/Rigs/Poses/Quinn/Quinn_thigh_r_anim.uasset",
				"C:/Users/wolk1/OneDrive/Documents/Unreal Projects/tps/Content/Characters/Mannequins/Rigs/Poses/Quinn/Quinn_thigh_l_pose.uasset",
				"C:/Users/wolk1/OneDrive/Documents/Unreal Projects/tps/Content/Characters/Mannequins/Rigs/Poses/Quinn/Quinn_thigh_l_anim.uasset",
				"C:/Users/wolk1/OneDrive/Documents/Unreal Projects/tps/Content/Characters/Mannequins/Rigs/Poses/Quinn/Quinn_lowerarm_r_pose.uasset",
				"C:/Users/wolk1/OneDrive/Documents/Unreal Projects/tps/Content/Characters/Mannequins/Rigs/Poses/Quinn/Quinn_lowerarm_r_anim.uasset",
				"C:/Users/wolk1/OneDrive/Documents/Unreal Projects/tps/Content/Characters/Mannequins/Rigs/Poses/Quinn/Quinn_lowerarm_l_pose.uasset",
				"C:/Users/wolk1/OneDrive/Documents/Unreal Projects/tps/Content/Characters/Mannequins/Rigs/Poses/Quinn/Quinn_lowerarm_l_anim.uasset",
				"C:/Users/wolk1/OneDrive/Documents/Unreal Projects/tps/Content/Characters/Mannequins/Rigs/Poses/Quinn/Quinn_hand_r_pose.uasset",
				"C:/Users/wolk1/OneDrive/Documents/Unreal Projects/tps/Content/Characters/Mannequins/Rigs/Poses/Quinn/Quinn_hand_r_anim.uasset",
				"C:/Users/wolk1/OneDrive/Documents/Unreal Projects/tps/Content/Characters/Mannequins/Rigs/Poses/Quinn/Quinn_hand_l_pose.uasset",
				"C:/Users/wolk1/OneDrive/Documents/Unreal Projects/tps/Content/Characters/Mannequins/Rigs/Poses/Quinn/Quinn_hand_l_anim.uasset",
				"C:/Users/wolk1/OneDrive/Documents/Unreal Projects/tps/Content/Characters/Mannequins/Rigs/Poses/Quinn/Quinn_foot_r_pose.uasset",
				"C:/Users/wolk1/OneDrive/Documents/Unreal Projects/tps/Content/Characters/Mannequins/Rigs/Poses/Quinn/Quinn_foot_r_anim.uasset",
				"C:/Users/wolk1/OneDrive/Documents/Unreal Projects/tps/Content/Characters/Mannequins/Rigs/Poses/Quinn/Quinn_foot_l_pose.uasset",
				"C:/Users/wolk1/OneDrive/Documents/Unreal Projects/tps/Content/Characters/Mannequins/Rigs/Poses/Quinn/Quinn_foot_l_anim.uasset",
				"C:/Users/wolk1/OneDrive/Documents/Unreal Projects/tps/Content/Characters/Mannequins/Rigs/Poses/Quinn/Quinn_clavicle_r_pose.uasset",
				"C:/Users/wolk1/OneDrive/Documents/Unreal Projects/tps/Content/Characters/Mannequins/Rigs/Poses/Quinn/Quinn_clavicle_r_anim.uasset",
				"C:/Users/wolk1/OneDrive/Documents/Unreal Projects/tps/Content/Characters/Mannequins/Rigs/Poses/Quinn/Quinn_clavicle_l_pose.uasset",
				"C:/Users/wolk1/OneDrive/Documents/Unreal Projects/tps/Content/Characters/Mannequins/Rigs/Poses/Quinn/Quinn_clavicle_l_anim.uasset",
				"C:/Users/wolk1/OneDrive/Documents/Unreal Projects/tps/Content/Characters/Mannequins/Rigs/Poses/Quinn/Quinn_calf_r_pose.uasset",
				"C:/Users/wolk1/OneDrive/Documents/Unreal Projects/tps/Content/Characters/Mannequins/Rigs/Poses/Quinn/Quinn_calf_r_anim.uasset",
				"C:/Users/wolk1/OneDrive/Documents/Unreal Projects/tps/Content/Characters/Mannequins/Rigs/Poses/Quinn/Quinn_calf_l_pose.uasset",
				"C:/Users/wolk1/OneDrive/Documents/Unreal Projects/tps/Content/Characters/Mannequins/Rigs/Poses/Quinn/Quinn_calf_l_anim.uasset",
				"C:/Users/wolk1/OneDrive/Documents/Unreal Projects/tps/Content/Characters/Mannequins/Rigs/CR_Mannequin_Procedural.uasset",
				"C:/Users/wolk1/OneDrive/Documents/Unreal Projects/tps/Content/Characters/Mannequins/Animations/ABP_Quinn.uasset",
				"C:/Users/wolk1/OneDrive/Documents/Unreal Projects/tps/Content/Characters/Mannequins/Animations/Quinn/BS_MF_Unarmed_WalkRun.uasset",
				"C:/Users/wolk1/OneDrive/Documents/Unreal Projects/tps/Content/Characters/Mannequins/Animations/Quinn/MF_Walk_Fwd.uasset",
				"C:/Users/wolk1/OneDrive/Documents/Unreal Projects/tps/Content/Characters/Mannequins/Animations/Quinn/MF_Run_Fwd.uasset",
				"C:/Users/wolk1/OneDrive/Documents/Unreal Projects/tps/Content/Characters/Mannequins/Animations/Quinn/MF_Idle.uasset",
				"C:/Users/wolk1/OneDrive/Documents/Unreal Projects/tps/Content/Characters/Mannequins/Textures/Manny/T_Manny_02_CCRCCPlastic_MSK.uasset",
				"C:/Users/wolk1/OneDrive/Documents/Unreal Projects/tps/Content/Characters/Mannequins/Textures/Manny/T_Manny_02_D.uasset",
				"C:/Users/wolk1/OneDrive/Documents/Unreal Projects/tps/Content/Characters/Mannequins/Animations/ABP_Manny.uasset",
				"C:/Users/wolk1/OneDrive/Documents/Unreal Projects/tps/Content/Characters/Mannequins/Rigs/CR_Mannequin_BasicFootIK.uasset",
				"C:/Users/wolk1/OneDrive/Documents/Unreal Projects/tps/Content/Characters/Mannequins/Animations/Manny/BS_MM_WalkRun.uasset",
				"C:/Users/wolk1/OneDrive/Documents/Unreal Projects/tps/Content/Characters/Mannequins/Animations/Manny/MM_Walk_InPlace.uasset",
				"C:/Users/wolk1/OneDrive/Documents/Unreal Projects/tps/Content/Characters/Mannequins/Animations/Manny/MM_Walk_Fwd.uasset",
				"C:/Users/wolk1/OneDrive/Documents/Unreal Projects/tps/Content/Characters/Mannequins/Animations/Manny/MM_Run_Fwd.uasset",
				"C:/Users/wolk1/OneDrive/Documents/Unreal Projects/tps/Content/Characters/Mannequins/Animations/Manny/MM_Land.uasset",
				"C:/Users/wolk1/OneDrive/Documents/Unreal Projects/tps/Content/Characters/Mannequins/Animations/Manny/MM_Jump.uasset",
				"C:/Users/wolk1/OneDrive/Documents/Unreal Projects/tps/Content/Characters/Mannequins/Animations/Manny/MM_Idle.uasset",
				"C:/Users/wolk1/OneDrive/Documents/Unreal Projects/tps/Content/Characters/Mannequins/Animations/Manny/MM_Fall_Loop.uasset",
				"C:/Users/wolk1/OneDrive/Documents/Unreal Projects/tps/Content/Characters/Mannequins/Meshes/SK_Mannequin.uasset",
				"C:/Users/wolk1/OneDrive/Documents/Unreal Projects/tps/Content/StarterContent/Blueprints/BP_LightStudio.uasset",
				"C:/Users/wolk1/OneDrive/Documents/Unreal Projects/tps/Content/Enviroment/Sky/Assets/SM_Arrows.uasset",
				"C:/Users/wolk1/OneDrive/Documents/Unreal Projects/tps/Content/Enviroment/Sky/Assets/Skybox.uasset",
				"C:/Users/wolk1/OneDrive/Documents/Unreal Projects/tps/Content/Enviroment/Sky/Assets/M_LightStage_Skybox_HDRI.uasset",
				"C:/Users/wolk1/OneDrive/Documents/Unreal Projects/tps/Content/StarterContent/Blueprints/Assets/M_LightStage_Skybox_HDRI.uasset",
				"C:/Users/wolk1/OneDrive/Documents/Unreal Projects/tps/Content/Enviroment/Sky/Assets/M_LightStage_Skybox_Black.uasset",
				"C:/Users/wolk1/OneDrive/Documents/Unreal Projects/tps/Content/Enviroment/Sky/Assets/M_LightStage_Skybox_Master.uasset",
				"C:/Users/wolk1/OneDrive/Documents/Unreal Projects/tps/Content/Enviroment/Sky/Assets/M_LightStage_Arrows.uasset",
				"C:/Users/wolk1/OneDrive/Documents/Unreal Projects/tps/Content/StarterContent/Blueprints/Assets/M_LightStage_Arrows.uasset",
				"C:/Users/wolk1/OneDrive/Documents/Unreal Projects/tps/Content/Enviroment/Sky/Assets/SunlightColorLUT.uasset",
				"C:/Users/wolk1/OneDrive/Documents/Unreal Projects/tps/Content/Enviroment/Sky/Assets/FogBrightnessLUT.uasset",
				"C:/Users/wolk1/OneDrive/Documents/Unreal Projects/tps/Content/StarterContent/Blueprints/Assets/FogBrightnessLUT.uasset",
				"C:/Users/wolk1/OneDrive/Documents/Unreal Projects/tps/Content/StarterContent/Blueprints/Assets/SunlightColorLUT.uasset",
				"C:/Users/wolk1/OneDrive/Documents/Unreal Projects/tps/Content/StarterContent/Blueprints/Assets/M_LightStage_Skybox_Master.uasset",
				"C:/Users/wolk1/OneDrive/Documents/Unreal Projects/tps/Content/StarterContent/Blueprints/Assets/M_LightStage_Skybox_Black.uasset",
				"C:/Users/wolk1/OneDrive/Documents/Unreal Projects/tps/Content/StarterContent/Blueprints/Assets/Skybox.uasset",
				"C:/Users/wolk1/OneDrive/Documents/Unreal Projects/tps/Content/StarterContent/Blueprints/Assets/SM_Arrows.uasset",
				"C:/Users/wolk1/OneDrive/Documents/Unreal Projects/tps/Content/Enviroment/Sky/Blueprint_CeilingLight.uasset",
				"C:/Users/wolk1/OneDrive/Documents/Unreal Projects/tps/Content/StarterContent/Blueprints/Blueprint_CeilingLight.uasset",
				"C:/Users/wolk1/OneDrive/Documents/Unreal Projects/tps/Content/Enviroment/Sky/Blueprint_Effect_Explosion.uasset",
				"C:/Users/wolk1/OneDrive/Documents/Unreal Projects/tps/Content/Enviroment/Sky/Blueprint_Effect_Fire.uasset",
				"C:/Users/wolk1/OneDrive/Documents/Unreal Projects/tps/Content/StarterContent/Blueprints/Blueprint_Effect_Fire.uasset",
				"C:/Users/wolk1/OneDrive/Documents/Unreal Projects/tps/Content/Enviroment/Sky/Blueprint_Effect_Smoke.uasset",
				"C:/Users/wolk1/OneDrive/Documents/Unreal Projects/tps/Content/StarterContent/Blueprints/Blueprint_Effect_Smoke.uasset",
				"C:/Users/wolk1/OneDrive/Documents/Unreal Projects/tps/Content/Enviroment/Sky/Blueprint_Effect_Sparks.uasset",
				"C:/Users/wolk1/OneDrive/Documents/Unreal Projects/tps/Content/StarterContent/Blueprints/Blueprint_Effect_Sparks.uasset",
				"C:/Users/wolk1/OneDrive/Documents/Unreal Projects/tps/Content/Enviroment/Sky/Blueprint_Effect_Steam.uasset",
				"C:/Users/wolk1/OneDrive/Documents/Unreal Projects/tps/Content/StarterContent/Blueprints/Blueprint_Effect_Steam.uasset",
				"C:/Users/wolk1/OneDrive/Documents/Unreal Projects/tps/Content/Enviroment/Sky/Blueprint_WallSconce.uasset",
				"C:/Users/wolk1/OneDrive/Documents/Unreal Projects/tps/Content/StarterContent/Blueprints/Blueprint_WallSconce.uasset",
				"C:/Users/wolk1/OneDrive/Documents/Unreal Projects/tps/Content/Enviroment/Sky/BP_LightStudio.uasset",
				"C:/Users/wolk1/OneDrive/Documents/Unreal Projects/tps/Content/StarterContent/Blueprints/Blueprint_Effect_Explosion.uasset",
				"C:/Users/wolk1/OneDrive/Documents/Unreal Projects/tps/Content/Enviroment/FX_Effect/Particles/Materials/m_flare_01.uasset",
				"C:/Users/wolk1/OneDrive/Documents/Unreal Projects/tps/Content/Enviroment/FX_Effect/Particles/Materials/M_explosion_subUV.uasset",
				"C:/Users/wolk1/OneDrive/Documents/Unreal Projects/tps/Content/Enviroment/FX_Effect/Particles/Materials/M_Burst.uasset",
				"C:/Users/wolk1/OneDrive/Documents/Unreal Projects/tps/Content/Enviroment/FX_Effect/Particles/P_Steam_Lit.uasset",
				"C:/Users/wolk1/OneDrive/Documents/Unreal Projects/tps/Content/Enviroment/FX_Effect/Particles/P_Sparks.uasset",
				"C:/Users/wolk1/OneDrive/Documents/Unreal Projects/tps/Content/Enviroment/FX_Effect/Particles/Materials/M_Spark.uasset",
				"C:/Users/wolk1/OneDrive/Documents/Unreal Projects/tps/Content/Enviroment/FX_Effect/Particles/P_Smoke.uasset",
				"C:/Users/wolk1/OneDrive/Documents/Unreal Projects/tps/Content/Enviroment/FX_Effect/Particles/P_Fire.uasset",
				"C:/Users/wolk1/OneDrive/Documents/Unreal Projects/tps/Content/Enviroment/FX_Effect/Particles/Materials/M_Radial_Gradient.uasset",
				"C:/Users/wolk1/OneDrive/Documents/Unreal Projects/tps/Content/Enviroment/FX_Effect/Particles/Materials/M_Heat_Distortion.uasset",
				"C:/Users/wolk1/OneDrive/Documents/Unreal Projects/tps/Content/Enviroment/FX_Effect/Particles/Materials/M_Fire_SubUV.uasset",
				"C:/Users/wolk1/OneDrive/Documents/Unreal Projects/tps/Content/Enviroment/FX_Effect/Particles/P_Explosion.uasset",
				"C:/Users/wolk1/OneDrive/Documents/Unreal Projects/tps/Content/Enviroment/FX_Effect/Particles/Materials/M_smoke_subUV.uasset",
				"C:/Users/wolk1/OneDrive/Documents/Unreal Projects/tps/Content/Enviroment/FX_Effect/Particles/Materials/M_radial_ramp.uasset",
				"C:/Users/wolk1/OneDrive/Documents/Unreal Projects/tps/Content/Enviroment/FX_Effect/Particles/P_Ambient_Dust.uasset",
				"C:/Users/wolk1/OneDrive/Documents/Unreal Projects/tps/Content/StarterContent/Particles/P_Ambient_Dust.uasset",
				"C:/Users/wolk1/OneDrive/Documents/Unreal Projects/tps/Content/Enviroment/FX_Effect/Particles/Materials/M_Dust_Particle.uasset",
				"C:/Users/wolk1/OneDrive/Documents/Unreal Projects/tps/Content/StarterContent/Particles/Materials/M_Dust_Particle.uasset",
				"C:/Users/wolk1/OneDrive/Documents/Unreal Projects/tps/Content/StarterContent/Particles/Materials/M_radial_ramp.uasset",
				"C:/Users/wolk1/OneDrive/Documents/Unreal Projects/tps/Content/StarterContent/Particles/Materials/M_smoke_subUV.uasset",
				"C:/Users/wolk1/OneDrive/Documents/Unreal Projects/tps/Content/StarterContent/Particles/P_Explosion.uasset",
				"C:/Users/wolk1/OneDrive/Documents/Unreal Projects/tps/Content/StarterContent/Particles/Materials/M_Fire_SubUV.uasset",
				"C:/Users/wolk1/OneDrive/Documents/Unreal Projects/tps/Content/StarterContent/Particles/Materials/M_Heat_Distortion.uasset",
				"C:/Users/wolk1/OneDrive/Documents/Unreal Projects/tps/Content/StarterContent/Particles/Materials/M_Radial_Gradient.uasset",
				"C:/Users/wolk1/OneDrive/Documents/Unreal Projects/tps/Content/StarterContent/Particles/P_Fire.uasset",
				"C:/Users/wolk1/OneDrive/Documents/Unreal Projects/tps/Content/StarterContent/Particles/P_Smoke.uasset",
				"C:/Users/wolk1/OneDrive/Documents/Unreal Projects/tps/Content/StarterContent/Particles/Materials/M_Spark.uasset",
				"C:/Users/wolk1/OneDrive/Documents/Unreal Projects/tps/Content/StarterContent/Particles/P_Sparks.uasset",
				"C:/Users/wolk1/OneDrive/Documents/Unreal Projects/tps/Content/StarterContent/Particles/P_Steam_Lit.uasset",
				"C:/Users/wolk1/OneDrive/Documents/Unreal Projects/tps/Content/StarterContent/Particles/Materials/M_Burst.uasset",
				"C:/Users/wolk1/OneDrive/Documents/Unreal Projects/tps/Content/StarterContent/Particles/Materials/M_explosion_subUV.uasset",
				"C:/Users/wolk1/OneDrive/Documents/Unreal Projects/tps/Content/StarterContent/Particles/Materials/m_flare_01.uasset",
				"C:/Users/wolk1/OneDrive/Documents/Unreal Projects/tps/Content/Enviroment/FX_Effect/Sound/Collapse01.uasset",
				"C:/Users/wolk1/OneDrive/Documents/Unreal Projects/tps/Content/Enviroment/FX_Effect/Sound/Collapse02.uasset",
				"C:/Users/wolk1/OneDrive/Documents/Unreal Projects/tps/Content/Enviroment/FX_Effect/Sound/Collapse_Cue.uasset",
				"C:/Users/wolk1/OneDrive/Documents/Unreal Projects/tps/Content/StarterContent/Audio/Collapse_Cue.uasset",
				"C:/Users/wolk1/OneDrive/Documents/Unreal Projects/tps/Content/Enviroment/FX_Effect/Sound/Explosion01.uasset",
				"C:/Users/wolk1/OneDrive/Documents/Unreal Projects/tps/Content/Enviroment/FX_Effect/Sound/Explosion02.uasset",
				"C:/Users/wolk1/OneDrive/Documents/Unreal Projects/tps/Content/Enviroment/FX_Effect/Sound/Explosion_Cue.uasset",
				"C:/Users/wolk1/OneDrive/Documents/Unreal Projects/tps/Content/StarterContent/Audio/Explosion_Cue.uasset",
				"C:/Users/wolk1/OneDrive/Documents/Unreal Projects/tps/Content/Enviroment/FX_Effect/Sound/Fire01.uasset",
				"C:/Users/wolk1/OneDrive/Documents/Unreal Projects/tps/Content/Enviroment/FX_Effect/Sound/Fire01_Cue.uasset",
				"C:/Users/wolk1/OneDrive/Documents/Unreal Projects/tps/Content/Enviroment/FX_Effect/Sound/Fire_Sparks01.uasset",
				"C:/Users/wolk1/OneDrive/Documents/Unreal Projects/tps/Content/Enviroment/FX_Effect/Sound/Fire_Sparks01_Cue.uasset",
				"C:/Users/wolk1/OneDrive/Documents/Unreal Projects/tps/Content/Enviroment/FX_Effect/Sound/Light01.uasset",
				"C:/Users/wolk1/OneDrive/Documents/Unreal Projects/tps/Content/Enviroment/FX_Effect/Sound/Light02.uasset",
				"C:/Users/wolk1/OneDrive/Documents/Unreal Projects/tps/Content/Enviroment/FX_Effect/Sound/Light01_Cue.uasset",
				"C:/Users/wolk1/OneDrive/Documents/Unreal Projects/tps/Content/Enviroment/FX_Effect/Sound/Light02_Cue.uasset",
				"C:/Users/wolk1/OneDrive/Documents/Unreal Projects/tps/Content/Enviroment/FX_Effect/Sound/Smoke01.uasset",
				"C:/Users/wolk1/OneDrive/Documents/Unreal Projects/tps/Content/Enviroment/FX_Effect/Sound/Smoke01_Cue.uasset",
				"C:/Users/wolk1/OneDrive/Documents/Unreal Projects/tps/Content/Enviroment/FX_Effect/Sound/Starter_Background_Cue.uasset",
				"C:/Users/wolk1/OneDrive/Documents/Unreal Projects/tps/Content/StarterContent/Audio/Starter_Background_Cue.uasset",
				"C:/Users/wolk1/OneDrive/Documents/Unreal Projects/tps/Content/Enviroment/FX_Effect/Sound/Starter_Birds01.uasset",
				"C:/Users/wolk1/OneDrive/Documents/Unreal Projects/tps/Content/Enviroment/FX_Effect/Sound/Starter_Music01.uasset",
				"C:/Users/wolk1/OneDrive/Documents/Unreal Projects/tps/Content/Enviroment/FX_Effect/Sound/Starter_Music_Cue.uasset",
				"C:/Users/wolk1/OneDrive/Documents/Unreal Projects/tps/Content/StarterContent/Audio/Starter_Music_Cue.uasset",
				"C:/Users/wolk1/OneDrive/Documents/Unreal Projects/tps/Content/Enviroment/FX_Effect/Sound/Starter_Wind05.uasset",
				"C:/Users/wolk1/OneDrive/Documents/Unreal Projects/tps/Content/Enviroment/FX_Effect/Sound/Starter_Wind06.uasset",
				"C:/Users/wolk1/OneDrive/Documents/Unreal Projects/tps/Content/Enviroment/FX_Effect/Sound/Steam01.uasset",
				"C:/Users/wolk1/OneDrive/Documents/Unreal Projects/tps/Content/Enviroment/FX_Effect/Sound/Steam01_Cue.uasset",
				"C:/Users/wolk1/OneDrive/Documents/Unreal Projects/tps/Content/StarterContent/Audio/Steam01_Cue.uasset",
				"C:/Users/wolk1/OneDrive/Documents/Unreal Projects/tps/Content/StarterContent/Audio/Steam01.uasset",
				"C:/Users/wolk1/OneDrive/Documents/Unreal Projects/tps/Content/StarterContent/Audio/Starter_Wind06.uasset",
				"C:/Users/wolk1/OneDrive/Documents/Unreal Projects/tps/Content/StarterContent/Audio/Starter_Wind05.uasset",
				"C:/Users/wolk1/OneDrive/Documents/Unreal Projects/tps/Content/StarterContent/Audio/Starter_Music01.uasset",
				"C:/Users/wolk1/OneDrive/Documents/Unreal Projects/tps/Content/StarterContent/Audio/Starter_Birds01.uasset",
				"C:/Users/wolk1/OneDrive/Documents/Unreal Projects/tps/Content/StarterContent/Audio/Smoke01_Cue.uasset",
				"C:/Users/wolk1/OneDrive/Documents/Unreal Projects/tps/Content/StarterContent/Audio/Smoke01.uasset",
				"C:/Users/wolk1/OneDrive/Documents/Unreal Projects/tps/Content/StarterContent/Audio/Light02_Cue.uasset",
				"C:/Users/wolk1/OneDrive/Documents/Unreal Projects/tps/Content/StarterContent/Audio/Light01_Cue.uasset",
				"C:/Users/wolk1/OneDrive/Documents/Unreal Projects/tps/Content/StarterContent/Audio/Light02.uasset",
				"C:/Users/wolk1/OneDrive/Documents/Unreal Projects/tps/Content/StarterContent/Audio/Light01.uasset",
				"C:/Users/wolk1/OneDrive/Documents/Unreal Projects/tps/Content/StarterContent/Audio/Fire_Sparks01_Cue.uasset",
				"C:/Users/wolk1/OneDrive/Documents/Unreal Projects/tps/Content/StarterContent/Audio/Fire_Sparks01.uasset",
				"C:/Users/wolk1/OneDrive/Documents/Unreal Projects/tps/Content/StarterContent/Audio/Fire01_Cue.uasset",
				"C:/Users/wolk1/OneDrive/Documents/Unreal Projects/tps/Content/StarterContent/Audio/Fire01.uasset",
				"C:/Users/wolk1/OneDrive/Documents/Unreal Projects/tps/Content/StarterContent/Audio/Explosion02.uasset",
				"C:/Users/wolk1/OneDrive/Documents/Unreal Projects/tps/Content/StarterContent/Audio/Explosion01.uasset",
				"C:/Users/wolk1/OneDrive/Documents/Unreal Projects/tps/Content/StarterContent/Audio/Collapse02.uasset",
				"C:/Users/wolk1/OneDrive/Documents/Unreal Projects/tps/Content/StarterContent/Audio/Collapse01.uasset",
				"C:/Users/wolk1/OneDrive/Documents/Unreal Projects/tps/Content/FX_Effect/Particles/Materials/m_flare_01.uasset",
				"C:/Users/wolk1/OneDrive/Documents/Unreal Projects/tps/Content/FX_Effect/Particles/Materials/M_explosion_subUV.uasset",
				"C:/Users/wolk1/OneDrive/Documents/Unreal Projects/tps/Content/FX_Effect/Sound/Collapse01.uasset",
				"C:/Users/wolk1/OneDrive/Documents/Unreal Projects/tps/Content/FX_Effect/Particles/Materials/M_Burst.uasset",
				"C:/Users/wolk1/OneDrive/Documents/Unreal Projects/tps/Content/FX_Effect/Sound/Explosion_Cue.uasset",
				"C:/Users/wolk1/OneDrive/Documents/Unreal Projects/tps/Content/FX_Effect/Sound/Steam01.uasset",
				"C:/Users/wolk1/OneDrive/Documents/Unreal Projects/tps/Content/FX_Effect/Particles/P_Steam_Lit.uasset",
				"C:/Users/wolk1/OneDrive/Documents/Unreal Projects/tps/Content/FX_Effect/Sound/Steam01_Cue.uasset",
				"C:/Users/wolk1/OneDrive/Documents/Unreal Projects/tps/Content/FX_Effect/Sound/Fire_Sparks01.uasset",
				"C:/Users/wolk1/OneDrive/Documents/Unreal Projects/tps/Content/FX_Effect/Particles/P_Sparks.uasset",
				"C:/Users/wolk1/OneDrive/Documents/Unreal Projects/tps/Content/FX_Effect/Particles/Materials/M_Spark.uasset",
				"C:/Users/wolk1/OneDrive/Documents/Unreal Projects/tps/Content/FX_Effect/Sound/Collapse_Cue.uasset",
				"C:/Users/wolk1/OneDrive/Documents/Unreal Projects/tps/Content/FX_Effect/Sound/Fire_Sparks01_Cue.uasset",
				"C:/Users/wolk1/OneDrive/Documents/Unreal Projects/tps/Content/FX_Effect/Sound/Smoke01.uasset",
				"C:/Users/wolk1/OneDrive/Documents/Unreal Projects/tps/Content/FX_Effect/Particles/P_Smoke.uasset",
				"C:/Users/wolk1/OneDrive/Documents/Unreal Projects/tps/Content/FX_Effect/Sound/Collapse02.uasset",
				"C:/Users/wolk1/OneDrive/Documents/Unreal Projects/tps/Content/FX_Effect/Sound/Smoke01_Cue.uasset",
				"C:/Users/wolk1/OneDrive/Documents/Unreal Projects/tps/Content/FX_Effect/Sound/Fire01.uasset",
				"C:/Users/wolk1/OneDrive/Documents/Unreal Projects/tps/Content/FX_Effect/Particles/P_Ambient_Dust.uasset",
				"C:/Users/wolk1/OneDrive/Documents/Unreal Projects/tps/Content/FX_Effect/Particles/Materials/M_Dust_Particle.uasset",
				"C:/Users/wolk1/OneDrive/Documents/Unreal Projects/tps/Content/FX_Effect/Sound/Starter_Music_Cue.uasset",
				"C:/Users/wolk1/OneDrive/Documents/Unreal Projects/tps/Content/FX_Effect/Sound/Starter_Music01.uasset",
				"C:/Users/wolk1/OneDrive/Documents/Unreal Projects/tps/Content/FX_Effect/Sound/Starter_Wind06.uasset",
				"C:/Users/wolk1/OneDrive/Documents/Unreal Projects/tps/Content/FX_Effect/Sound/Starter_Birds01.uasset",
				"C:/Users/wolk1/OneDrive/Documents/Unreal Projects/tps/Content/FX_Effect/Sound/Starter_Wind05.uasset",
				"C:/Users/wolk1/OneDrive/Documents/Unreal Projects/tps/Content/FX_Effect/Sound/Starter_Background_Cue.uasset",
				"C:/Users/wolk1/OneDrive/Documents/Unreal Projects/tps/Content/FX_Effect/Sound/Light02_Cue.uasset",
				"C:/Users/wolk1/OneDrive/Documents/Unreal Projects/tps/Content/FX_Effect/Sound/Light01_Cue.uasset",
				"C:/Users/wolk1/OneDrive/Documents/Unreal Projects/tps/Content/FX_Effect/Sound/Light02.uasset",
				"C:/Users/wolk1/OneDrive/Documents/Unreal Projects/tps/Content/FX_Effect/Sound/Light01.uasset",
				"C:/Users/wolk1/OneDrive/Documents/Unreal Projects/tps/Content/FX_Effect/Particles/P_Fire.uasset",
				"C:/Users/wolk1/OneDrive/Documents/Unreal Projects/tps/Content/FX_Effect/Particles/Materials/M_Radial_Gradient.uasset",
				"C:/Users/wolk1/OneDrive/Documents/Unreal Projects/tps/Content/FX_Effect/Particles/Materials/M_Heat_Distortion.uasset",
				"C:/Users/wolk1/OneDrive/Documents/Unreal Projects/tps/Content/FX_Effect/Particles/Materials/M_Fire_SubUV.uasset",
				"C:/Users/wolk1/OneDrive/Documents/Unreal Projects/tps/Content/FX_Effect/Sound/Fire01_Cue.uasset",
				"C:/Users/wolk1/OneDrive/Documents/Unreal Projects/tps/Content/FX_Effect/Sound/Explosion02.uasset",
				"C:/Users/wolk1/OneDrive/Documents/Unreal Projects/tps/Content/FX_Effect/Sound/Explosion01.uasset",
				"C:/Users/wolk1/OneDrive/Documents/Unreal Projects/tps/Content/FX_Effect/Particles/P_Explosion.uasset",
				"C:/Users/wolk1/OneDrive/Documents/Unreal Projects/tps/Content/FX_Effect/Particles/Materials/M_smoke_subUV.uasset",
				"C:/Users/wolk1/OneDrive/Documents/Unreal Projects/tps/Content/FX_Effect/Particles/Materials/M_radial_ramp.uasset",
				"C:/Users/wolk1/OneDrive/Documents/Unreal Projects/tps/Content/Enviroment/Structure/Architecture/Wall_Window_400x400.uasset",
				"C:/Users/wolk1/OneDrive/Documents/Unreal Projects/tps/Content/Enviroment/Structure/Architecture/Wall_Window_400x300.uasset",
				"C:/Users/wolk1/OneDrive/Documents/Unreal Projects/tps/Content/StarterContent/Architecture/Wall_Window_400x300.uasset",
				"C:/Users/wolk1/OneDrive/Documents/Unreal Projects/tps/Content/Enviroment/Structure/Architecture/Wall_Door_400x400.uasset",
				"C:/Users/wolk1/OneDrive/Documents/Unreal Projects/tps/Content/Enviroment/Structure/Architecture/Wall_Door_400x300.uasset",
				"C:/Users/wolk1/OneDrive/Documents/Unreal Projects/tps/Content/StarterContent/Architecture/Wall_Door_400x300.uasset",
				"C:/Users/wolk1/OneDrive/Documents/Unreal Projects/tps/Content/Enviroment/Structure/Architecture/Wall_500x500.uasset",
				"C:/Users/wolk1/OneDrive/Documents/Unreal Projects/tps/Content/Enviroment/Structure/Architecture/Wall_400x400.uasset",
				"C:/Users/wolk1/OneDrive/Documents/Unreal Projects/tps/Content/Enviroment/Structure/Architecture/Wall_400x300.uasset",
				"C:/Users/wolk1/OneDrive/Documents/Unreal Projects/tps/Content/Enviroment/Structure/Architecture/Wall_400x200.uasset",
				"C:/Users/wolk1/OneDrive/Documents/Unreal Projects/tps/Content/StarterContent/Architecture/Wall_400x200.uasset",
				"C:/Users/wolk1/OneDrive/Documents/Unreal Projects/tps/Content/Enviroment/Structure/Architecture/SM_AssetPlatform.uasset",
				"C:/Users/wolk1/OneDrive/Documents/Unreal Projects/tps/Content/StarterContent/Architecture/SM_AssetPlatform.uasset",
				"C:/Users/wolk1/OneDrive/Documents/Unreal Projects/tps/Content/Enviroment/Structure/Architecture/Pillar_50x500.uasset",
				"C:/Users/wolk1/OneDrive/Documents/Unreal Projects/tps/Content/Enviroment/Structure/Architecture/Floor_400x400.uasset",
				"C:/Users/wolk1/OneDrive/Documents/Unreal Projects/tps/Content/StarterContent/Architecture/Floor_400x400.uasset",
				"C:/Users/wolk1/OneDrive/Documents/Unreal Projects/tps/Content/StarterContent/Architecture/Pillar_50x500.uasset",
				"C:/Users/wolk1/OneDrive/Documents/Unreal Projects/tps/Content/StarterContent/Architecture/Wall_400x300.uasset",
				"C:/Users/wolk1/OneDrive/Documents/Unreal Projects/tps/Content/StarterContent/Architecture/Wall_400x400.uasset",
				"C:/Users/wolk1/OneDrive/Documents/Unreal Projects/tps/Content/StarterContent/Architecture/Wall_500x500.uasset",
				"C:/Users/wolk1/OneDrive/Documents/Unreal Projects/tps/Content/StarterContent/Architecture/Wall_Door_400x400.uasset",
				"C:/Users/wolk1/OneDrive/Documents/Unreal Projects/tps/Content/StarterContent/Architecture/Wall_Window_400x400.uasset",
				"C:/Users/wolk1/OneDrive/Documents/Unreal Projects/tps/Content/StarterContent/Props/SM_Stairs.uasset",
				"C:/Users/wolk1/OneDrive/Documents/Unreal Projects/tps/Content/StarterContent/Shapes/Shape_Cone.uasset",
				"C:/Users/wolk1/OneDrive/Documents/Unreal Projects/tps/Content/StarterContent/Shapes/Shape_Cube.uasset",
				"C:/Users/wolk1/OneDrive/Documents/Unreal Projects/tps/Content/StarterContent/Shapes/Shape_Cylinder.uasset",
				"C:/Users/wolk1/OneDrive/Documents/Unreal Projects/tps/Content/StarterContent/Shapes/Shape_NarrowCapsule.uasset",
				"C:/Users/wolk1/OneDrive/Documents/Unreal Projects/tps/Content/StarterContent/Shapes/Shape_Pipe.uasset",
				"C:/Users/wolk1/OneDrive/Documents/Unreal Projects/tps/Content/StarterContent/Shapes/Shape_Pipe_90.uasset",
				"C:/Users/wolk1/OneDrive/Documents/Unreal Projects/tps/Content/StarterContent/Shapes/Shape_Pipe_180.uasset",
				"C:/Users/wolk1/OneDrive/Documents/Unreal Projects/tps/Content/StarterContent/Shapes/Shape_Plane.uasset",
				"C:/Users/wolk1/OneDrive/Documents/Unreal Projects/tps/Content/StarterContent/Shapes/Shape_QuadPyramid.uasset",
				"C:/Users/wolk1/OneDrive/Documents/Unreal Projects/tps/Content/StarterContent/Shapes/Shape_Sphere.uasset",
				"C:/Users/wolk1/OneDrive/Documents/Unreal Projects/tps/Content/StarterContent/Shapes/Shape_Torus.uasset",
				"C:/Users/wolk1/OneDrive/Documents/Unreal Projects/tps/Content/StarterContent/Shapes/Shape_Trim.uasset",
				"C:/Users/wolk1/OneDrive/Documents/Unreal Projects/tps/Content/StarterContent/Shapes/Shape_Trim_90_In.uasset",
				"C:/Users/wolk1/OneDrive/Documents/Unreal Projects/tps/Content/StarterContent/Shapes/Shape_Trim_90_Out.uasset",
				"C:/Users/wolk1/OneDrive/Documents/Unreal Projects/tps/Content/StarterContent/Shapes/Shape_TriPyramid.uasset",
				"C:/Users/wolk1/OneDrive/Documents/Unreal Projects/tps/Content/StarterContent/Shapes/Shape_Tube.uasset",
				"C:/Users/wolk1/OneDrive/Documents/Unreal Projects/tps/Content/StarterContent/Shapes/Shape_Wedge_A.uasset",
				"C:/Users/wolk1/OneDrive/Documents/Unreal Projects/tps/Content/StarterContent/Shapes/Shape_Wedge_B.uasset",
				"C:/Users/wolk1/OneDrive/Documents/Unreal Projects/tps/Content/StarterContent/Shapes/Shape_WideCapsule.uasset",
				"C:/Users/wolk1/OneDrive/Documents/Unreal Projects/tps/Content/StarterContent/Props/SM_Door.uasset",
				"C:/Users/wolk1/OneDrive/Documents/Unreal Projects/tps/Content/StarterContent/Props/SM_GlassWindow.uasset",
				"C:/Users/wolk1/OneDrive/Documents/Unreal Projects/tps/Content/Enviroment/Structure/Materials/M_Basic_Floor.uasset",
				"C:/Users/wolk1/OneDrive/Documents/Unreal Projects/tps/Content/Enviroment/Structure/Materials/M_AssetPlatform.uasset",
				"C:/Users/wolk1/OneDrive/Documents/Unreal Projects/tps/Content/StarterContent/Materials/M_AssetPlatform.uasset",
				"C:/Users/wolk1/OneDrive/Documents/Unreal Projects/tps/Content/Enviroment/Structure/Materials/M_Basic_Wall.uasset",
				"C:/Users/wolk1/OneDrive/Documents/Unreal Projects/tps/Content/Enviroment/Structure/Materials/M_Wood_Walnut.uasset",
				"C:/Users/wolk1/OneDrive/Documents/Unreal Projects/tps/Content/StarterContent/Materials/M_Wood_Walnut.uasset",
				"C:/Users/wolk1/OneDrive/Documents/Unreal Projects/tps/Content/Enviroment/Structure/Materials/M_Wood_Pine.uasset",
				"C:/Users/wolk1/OneDrive/Documents/Unreal Projects/tps/Content/StarterContent/Materials/M_Wood_Pine.uasset",
				"C:/Users/wolk1/OneDrive/Documents/Unreal Projects/tps/Content/Enviroment/Structure/Materials/M_Wood_Oak.uasset",
				"C:/Users/wolk1/OneDrive/Documents/Unreal Projects/tps/Content/StarterContent/Materials/M_Wood_Oak.uasset",
				"C:/Users/wolk1/OneDrive/Documents/Unreal Projects/tps/Content/Enviroment/Structure/Materials/M_Wood_Floor_Walnut_Worn.uasset",
				"C:/Users/wolk1/OneDrive/Documents/Unreal Projects/tps/Content/StarterContent/Materials/M_Wood_Floor_Walnut_Worn.uasset",
				"C:/Users/wolk1/OneDrive/Documents/Unreal Projects/tps/Content/Enviroment/Structure/Materials/M_Wood_Floor_Walnut_Polished.uasset",
				"C:/Users/wolk1/OneDrive/Documents/Unreal Projects/tps/Content/StarterContent/Materials/M_Wood_Floor_Walnut_Polished.uasset",
				"C:/Users/wolk1/OneDrive/Documents/Unreal Projects/tps/Content/Enviroment/Structure/Materials/M_Water_Ocean.uasset",
				"C:/Users/wolk1/OneDrive/Documents/Unreal Projects/tps/Content/StarterContent/Materials/M_Water_Ocean.uasset",
				"C:/Users/wolk1/OneDrive/Documents/Unreal Projects/tps/Content/Enviroment/Structure/Materials/M_Water_Lake.uasset",
				"C:/Users/wolk1/OneDrive/Documents/Unreal Projects/tps/Content/StarterContent/Materials/M_Water_Lake.uasset",
				"C:/Users/wolk1/OneDrive/Documents/Unreal Projects/tps/Content/Enviroment/Structure/Materials/M_Tech_Panel.uasset",
				"C:/Users/wolk1/OneDrive/Documents/Unreal Projects/tps/Content/StarterContent/Materials/M_Tech_Panel.uasset",
				"C:/Users/wolk1/OneDrive/Documents/Unreal Projects/tps/Content/Enviroment/Structure/Materials/M_Tech_Hex_Tile_Pulse.uasset",
				"C:/Users/wolk1/OneDrive/Documents/Unreal Projects/tps/Content/StarterContent/Materials/M_Tech_Hex_Tile_Pulse.uasset",
				"C:/Users/wolk1/OneDrive/Documents/Unreal Projects/tps/Content/Enviroment/Structure/Materials/M_Tech_Hex_Tile.uasset",
				"C:/Users/wolk1/OneDrive/Documents/Unreal Projects/tps/Content/StarterContent/Materials/M_Tech_Hex_Tile.uasset",
				"C:/Users/wolk1/OneDrive/Documents/Unreal Projects/tps/Content/Enviroment/Structure/Materials/M_Tech_Checker_Dot.uasset",
				"C:/Users/wolk1/OneDrive/Documents/Unreal Projects/tps/Content/StarterContent/Materials/M_Tech_Checker_Dot.uasset",
				"C:/Users/wolk1/OneDrive/Documents/Unreal Projects/tps/Content/Enviroment/Structure/Materials/M_Rock_Slate.uasset",
				"C:/Users/wolk1/OneDrive/Documents/Unreal Projects/tps/Content/StarterContent/Materials/M_Rock_Slate.uasset",
				"C:/Users/wolk1/OneDrive/Documents/Unreal Projects/tps/Content/Enviroment/Structure/Materials/M_Rock_Sandstone.uasset",
				"C:/Users/wolk1/OneDrive/Documents/Unreal Projects/tps/Content/StarterContent/Materials/M_Rock_Sandstone.uasset",
				"C:/Users/wolk1/OneDrive/Documents/Unreal Projects/tps/Content/Enviroment/Structure/Materials/M_Rock_Marble_Polished.uasset",
				"C:/Users/wolk1/OneDrive/Documents/Unreal Projects/tps/Content/StarterContent/Materials/M_Rock_Marble_Polished.uasset",
				"C:/Users/wolk1/OneDrive/Documents/Unreal Projects/tps/Content/Enviroment/Structure/Materials/M_Rock_Basalt.uasset",
				"C:/Users/wolk1/OneDrive/Documents/Unreal Projects/tps/Content/StarterContent/Materials/M_Rock_Basalt.uasset",
				"C:/Users/wolk1/OneDrive/Documents/Unreal Projects/tps/Content/Enviroment/Structure/Materials/M_Metal_Steel.uasset",
				"C:/Users/wolk1/OneDrive/Documents/Unreal Projects/tps/Content/StarterContent/Materials/M_Metal_Steel.uasset",
				"C:/Users/wolk1/OneDrive/Documents/Unreal Projects/tps/Content/Enviroment/Structure/Materials/M_Metal_Rust.uasset",
				"C:/Users/wolk1/OneDrive/Documents/Unreal Projects/tps/Content/StarterContent/Materials/M_Metal_Rust.uasset",
				"C:/Users/wolk1/OneDrive/Documents/Unreal Projects/tps/Content/Enviroment/Structure/Materials/M_Metal_Gold.uasset",
				"C:/Users/wolk1/OneDrive/Documents/Unreal Projects/tps/Content/StarterContent/Materials/M_Metal_Gold.uasset",
				"C:/Users/wolk1/OneDrive/Documents/Unreal Projects/tps/Content/Enviroment/Structure/Materials/M_Metal_Copper.uasset",
				"C:/Users/wolk1/OneDrive/Documents/Unreal Projects/tps/Content/StarterContent/Materials/M_Metal_Copper.uasset",
				"C:/Users/wolk1/OneDrive/Documents/Unreal Projects/tps/Content/Enviroment/Structure/Materials/M_Metal_Chrome.uasset",
				"C:/Users/wolk1/OneDrive/Documents/Unreal Projects/tps/Content/StarterContent/Materials/M_Metal_Chrome.uasset",
				"C:/Users/wolk1/OneDrive/Documents/Unreal Projects/tps/Content/Enviroment/Structure/Materials/M_Metal_Burnished_Steel.uasset",
				"C:/Users/wolk1/OneDrive/Documents/Unreal Projects/tps/Content/StarterContent/Materials/M_Metal_Burnished_Steel.uasset",
				"C:/Users/wolk1/OneDrive/Documents/Unreal Projects/tps/Content/Enviroment/Structure/Materials/M_Metal_Brushed_Nickel.uasset",
				"C:/Users/wolk1/OneDrive/Documents/Unreal Projects/tps/Content/StarterContent/Materials/M_Metal_Brushed_Nickel.uasset",
				"C:/Users/wolk1/OneDrive/Documents/Unreal Projects/tps/Content/Enviroment/Structure/Materials/M_Ground_Moss.uasset",
				"C:/Users/wolk1/OneDrive/Documents/Unreal Projects/tps/Content/StarterContent/Materials/M_Ground_Moss.uasset",
				"C:/Users/wolk1/OneDrive/Documents/Unreal Projects/tps/Content/Enviroment/Structure/Materials/M_Ground_Gravel.uasset",
				"C:/Users/wolk1/OneDrive/Documents/Unreal Projects/tps/Content/StarterContent/Materials/M_Ground_Gravel.uasset",
				"C:/Users/wolk1/OneDrive/Documents/Unreal Projects/tps/Content/Enviroment/Structure/Materials/M_Ground_Grass.uasset",
				"C:/Users/wolk1/OneDrive/Documents/Unreal Projects/tps/Content/StarterContent/Materials/M_Ground_Grass.uasset",
				"C:/Users/wolk1/OneDrive/Documents/Unreal Projects/tps/Content/Enviroment/Structure/Materials/M_Glass.uasset",
				"C:/Users/wolk1/OneDrive/Documents/Unreal Projects/tps/Content/Enviroment/Structure/Materials/M_Concrete_Tiles.uasset",
				"C:/Users/wolk1/OneDrive/Documents/Unreal Projects/tps/Content/StarterContent/Materials/M_Concrete_Tiles.uasset",
				"C:/Users/wolk1/OneDrive/Documents/Unreal Projects/tps/Content/Enviroment/Structure/Materials/M_Concrete_Poured.uasset",
				"C:/Users/wolk1/OneDrive/Documents/Unreal Projects/tps/Content/StarterContent/Materials/M_Concrete_Poured.uasset",
				"C:/Users/wolk1/OneDrive/Documents/Unreal Projects/tps/Content/Enviroment/Structure/Materials/M_Concrete_Panels.uasset",
				"C:/Users/wolk1/OneDrive/Documents/Unreal Projects/tps/Content/StarterContent/Materials/M_Concrete_Panels.uasset",
				"C:/Users/wolk1/OneDrive/Documents/Unreal Projects/tps/Content/Enviroment/Structure/Materials/M_Concrete_Grime.uasset",
				"C:/Users/wolk1/OneDrive/Documents/Unreal Projects/tps/Content/StarterContent/Materials/M_Concrete_Grime.uasset",
				"C:/Users/wolk1/OneDrive/Documents/Unreal Projects/tps/Content/Enviroment/Structure/Materials/M_ColorGrid_LowSpec.uasset",
				"C:/Users/wolk1/OneDrive/Documents/Unreal Projects/tps/Content/Enviroment/Structure/Materials/M_CobbleStone_Smooth.uasset",
				"C:/Users/wolk1/OneDrive/Documents/Unreal Projects/tps/Content/StarterContent/Materials/M_CobbleStone_Smooth.uasset",
				"C:/Users/wolk1/OneDrive/Documents/Unreal Projects/tps/Content/Enviroment/Structure/Materials/M_CobbleStone_Rough.uasset",
				"C:/Users/wolk1/OneDrive/Documents/Unreal Projects/tps/Content/StarterContent/Materials/M_CobbleStone_Rough.uasset",
				"C:/Users/wolk1/OneDrive/Documents/Unreal Projects/tps/Content/Enviroment/Structure/Materials/M_CobbleStone_Pebble.uasset",
				"C:/Users/wolk1/OneDrive/Documents/Unreal Projects/tps/Content/StarterContent/Materials/M_CobbleStone_Pebble.uasset",
				"C:/Users/wolk1/OneDrive/Documents/Unreal Projects/tps/Content/Enviroment/Structure/Materials/M_Ceramic_Tile_Checker.uasset",
				"C:/Users/wolk1/OneDrive/Documents/Unreal Projects/tps/Content/StarterContent/Materials/M_Ceramic_Tile_Checker.uasset",
				"C:/Users/wolk1/OneDrive/Documents/Unreal Projects/tps/Content/Enviroment/Structure/Materials/M_Brick_Hewn_Stone.uasset",
				"C:/Users/wolk1/OneDrive/Documents/Unreal Projects/tps/Content/StarterContent/Materials/M_Brick_Hewn_Stone.uasset",
				"C:/Users/wolk1/OneDrive/Documents/Unreal Projects/tps/Content/Enviroment/Structure/Materials/M_Brick_Cut_Stone.uasset",
				"C:/Users/wolk1/OneDrive/Documents/Unreal Projects/tps/Content/StarterContent/Materials/M_Brick_Cut_Stone.uasset",
				"C:/Users/wolk1/OneDrive/Documents/Unreal Projects/tps/Content/Enviroment/Structure/Materials/M_Brick_Clay_Old.uasset",
				"C:/Users/wolk1/OneDrive/Documents/Unreal Projects/tps/Content/StarterContent/Materials/M_Brick_Clay_Old.uasset",
				"C:/Users/wolk1/OneDrive/Documents/Unreal Projects/tps/Content/Enviroment/Structure/Materials/M_Brick_Clay_New.uasset",
				"C:/Users/wolk1/OneDrive/Documents/Unreal Projects/tps/Content/StarterContent/Materials/M_Brick_Clay_New.uasset",
				"C:/Users/wolk1/OneDrive/Documents/Unreal Projects/tps/Content/Enviroment/Structure/Materials/M_Brick_Clay_Beveled.uasset",
				"C:/Users/wolk1/OneDrive/Documents/Unreal Projects/tps/Content/StarterContent/Materials/M_Brick_Clay_Beveled.uasset",
				"C:/Users/wolk1/OneDrive/Documents/Unreal Projects/tps/Content/StarterContent/Materials/M_ColorGrid_LowSpec.uasset",
				"C:/Users/wolk1/OneDrive/Documents/Unreal Projects/tps/Content/StarterContent/Materials/M_Glass.uasset",
				"C:/Users/wolk1/OneDrive/Documents/Unreal Projects/tps/Content/StarterContent/Materials/M_Basic_Wall.uasset",
				"C:/Users/wolk1/OneDrive/Documents/Unreal Projects/tps/Content/StarterContent/Materials/M_Basic_Floor.uasset",
				"C:/Users/wolk1/OneDrive/Documents/Unreal Projects/tps/Content/Enviroment/Materials/M_Wood_Oak.uasset",
				"C:/Users/wolk1/OneDrive/Documents/Unreal Projects/tps/Content/Enviroment/Materials/M_Wood_Pine.uasset",
				"C:/Users/wolk1/OneDrive/Documents/Unreal Projects/tps/Content/Enviroment/Materials/M_Basic_Floor.uasset",
				"C:/Users/wolk1/OneDrive/Documents/Unreal Projects/tps/Content/Enviroment/Materials/M_AssetPlatform.uasset",
				"C:/Users/wolk1/OneDrive/Documents/Unreal Projects/tps/Content/Enviroment/Materials/M_Basic_Wall.uasset",
				"C:/Users/wolk1/OneDrive/Documents/Unreal Projects/tps/Content/Enviroment/Materials/M_Brick_Cut_Stone.uasset",
				"C:/Users/wolk1/OneDrive/Documents/Unreal Projects/tps/Content/Enviroment/Materials/M_Brick_Hewn_Stone.uasset",
				"C:/Users/wolk1/OneDrive/Documents/Unreal Projects/tps/Content/Enviroment/Materials/M_Ceramic_Tile_Checker.uasset",
				"C:/Users/wolk1/OneDrive/Documents/Unreal Projects/tps/Content/Enviroment/Materials/M_CobbleStone_Pebble.uasset",
				"C:/Users/wolk1/OneDrive/Documents/Unreal Projects/tps/Content/Enviroment/Materials/M_CobbleStone_Rough.uasset",
				"C:/Users/wolk1/OneDrive/Documents/Unreal Projects/tps/Content/Enviroment/Materials/M_CobbleStone_Smooth.uasset",
				"C:/Users/wolk1/OneDrive/Documents/Unreal Projects/tps/Content/Enviroment/Materials/M_ColorGrid_LowSpec.uasset",
				"C:/Users/wolk1/OneDrive/Documents/Unreal Projects/tps/Content/Enviroment/Materials/M_Concrete_Grime.uasset",
				"C:/Users/wolk1/OneDrive/Documents/Unreal Projects/tps/Content/Enviroment/Materials/M_Concrete_Panels.uasset",
				"C:/Users/wolk1/OneDrive/Documents/Unreal Projects/tps/Content/Enviroment/Materials/M_Concrete_Poured.uasset",
				"C:/Users/wolk1/OneDrive/Documents/Unreal Projects/tps/Content/Enviroment/Materials/M_Concrete_Tiles.uasset",
				"C:/Users/wolk1/OneDrive/Documents/Unreal Projects/tps/Content/Enviroment/Materials/M_Glass.uasset",
				"C:/Users/wolk1/OneDrive/Documents/Unreal Projects/tps/Content/Enviroment/Materials/M_Ground_Grass.uasset",
				"C:/Users/wolk1/OneDrive/Documents/Unreal Projects/tps/Content/Enviroment/Materials/M_Ground_Gravel.uasset",
				"C:/Users/wolk1/OneDrive/Documents/Unreal Projects/tps/Content/Enviroment/Materials/M_Ground_Moss.uasset",
				"C:/Users/wolk1/OneDrive/Documents/Unreal Projects/tps/Content/Enviroment/Materials/M_Metal_Brushed_Nickel.uasset",
				"C:/Users/wolk1/OneDrive/Documents/Unreal Projects/tps/Content/Enviroment/Materials/M_Metal_Burnished_Steel.uasset",
				"C:/Users/wolk1/OneDrive/Documents/Unreal Projects/tps/Content/Enviroment/Materials/M_Metal_Chrome.uasset",
				"C:/Users/wolk1/OneDrive/Documents/Unreal Projects/tps/Content/Enviroment/Materials/M_Metal_Copper.uasset",
				"C:/Users/wolk1/OneDrive/Documents/Unreal Projects/tps/Content/Enviroment/Materials/M_Metal_Gold.uasset",
				"C:/Users/wolk1/OneDrive/Documents/Unreal Projects/tps/Content/Enviroment/Materials/M_Metal_Rust.uasset",
				"C:/Users/wolk1/OneDrive/Documents/Unreal Projects/tps/Content/Enviroment/Materials/M_Metal_Steel.uasset",
				"C:/Users/wolk1/OneDrive/Documents/Unreal Projects/tps/Content/Enviroment/Materials/M_Rock_Basalt.uasset",
				"C:/Users/wolk1/OneDrive/Documents/Unreal Projects/tps/Content/Enviroment/Materials/M_Rock_Marble_Polished.uasset",
				"C:/Users/wolk1/OneDrive/Documents/Unreal Projects/tps/Content/Enviroment/Materials/M_Rock_Sandstone.uasset",
				"C:/Users/wolk1/OneDrive/Documents/Unreal Projects/tps/Content/Enviroment/Materials/M_Rock_Slate.uasset",
				"C:/Users/wolk1/OneDrive/Documents/Unreal Projects/tps/Content/Enviroment/Materials/M_Tech_Checker_Dot.uasset",
				"C:/Users/wolk1/OneDrive/Documents/Unreal Projects/tps/Content/Enviroment/Materials/M_Tech_Hex_Tile.uasset",
				"C:/Users/wolk1/OneDrive/Documents/Unreal Projects/tps/Content/Enviroment/Materials/M_Tech_Hex_Tile_Pulse.uasset",
				"C:/Users/wolk1/OneDrive/Documents/Unreal Projects/tps/Content/Enviroment/Materials/M_Tech_Panel.uasset",
				"C:/Users/wolk1/OneDrive/Documents/Unreal Projects/tps/Content/Enviroment/Materials/M_Water_Lake.uasset",
				"C:/Users/wolk1/OneDrive/Documents/Unreal Projects/tps/Content/Enviroment/Materials/M_Water_Ocean.uasset",
				"C:/Users/wolk1/OneDrive/Documents/Unreal Projects/tps/Content/Enviroment/Materials/M_Wood_Floor_Walnut_Polished.uasset",
				"C:/Users/wolk1/OneDrive/Documents/Unreal Projects/tps/Content/Enviroment/Materials/M_Wood_Floor_Walnut_Worn.uasset",
				"C:/Users/wolk1/OneDrive/Documents/Unreal Projects/tps/Content/Enviroment/Materials/M_Wood_Walnut.uasset",
				"C:/Users/wolk1/OneDrive/Documents/Unreal Projects/tps/Content/Enviroment/Materials/M_Brick_Clay_Old.uasset",
				"C:/Users/wolk1/OneDrive/Documents/Unreal Projects/tps/Content/Enviroment/Materials/M_Brick_Clay_New.uasset",
				"C:/Users/wolk1/OneDrive/Documents/Unreal Projects/tps/Content/Enviroment/Materials/M_Brick_Clay_Beveled.uasset",
				"C:/Users/wolk1/OneDrive/Documents/Unreal Projects/tps/Content/Enviroment/Structure/Props/SM_Lamp_Ceiling.uasset",
				"C:/Users/wolk1/OneDrive/Documents/Unreal Projects/tps/Content/Enviroment/Structure/Props/Materials/M_Lamp.uasset",
				"C:/Users/wolk1/OneDrive/Documents/Unreal Projects/tps/Content/Enviroment/Structure/Props/SM_Lamp_Wall.uasset",
				"C:/Users/wolk1/OneDrive/Documents/Unreal Projects/tps/Content/Enviroment/Structure/Props/SM_Stairs.uasset",
				"C:/Users/wolk1/OneDrive/Documents/Unreal Projects/tps/Content/Enviroment/Structure/Props/Materials/M_Door.uasset",
				"C:/Users/wolk1/OneDrive/Documents/Unreal Projects/tps/Content/Enviroment/Structure/Props/SM_Door.uasset",
				"C:/Users/wolk1/OneDrive/Documents/Unreal Projects/tps/Content/Enviroment/Structure/Props/SM_GlassWindow.uasset",
				"C:/Users/wolk1/OneDrive/Documents/Unreal Projects/tps/Content/Enviroment/Structure/Props/SM_WindowFrame.uasset",
				"C:/Users/wolk1/OneDrive/Documents/Unreal Projects/tps/Content/StarterContent/Props/SM_WindowFrame.uasset",
				"C:/Users/wolk1/OneDrive/Documents/Unreal Projects/tps/Content/Enviroment/Structure/Props/SM_TableRound.uasset",
				"C:/Users/wolk1/OneDrive/Documents/Unreal Projects/tps/Content/StarterContent/Props/SM_TableRound.uasset",
				"C:/Users/wolk1/OneDrive/Documents/Unreal Projects/tps/Content/Enviroment/Structure/Props/SM_Statue.uasset",
				"C:/Users/wolk1/OneDrive/Documents/Unreal Projects/tps/Content/StarterContent/Props/SM_Statue.uasset",
				"C:/Users/wolk1/OneDrive/Documents/Unreal Projects/tps/Content/Enviroment/Structure/Props/SM_Shelf.uasset",
				"C:/Users/wolk1/OneDrive/Documents/Unreal Projects/tps/Content/Enviroment/Structure/Props/SM_Rock.uasset",
				"C:/Users/wolk1/OneDrive/Documents/Unreal Projects/tps/Content/Enviroment/Structure/Props/SM_PillarFrame300.uasset",
				"C:/Users/wolk1/OneDrive/Documents/Unreal Projects/tps/Content/StarterContent/Props/SM_PillarFrame300.uasset",
				"C:/Users/wolk1/OneDrive/Documents/Unreal Projects/tps/Content/Enviroment/Structure/Props/SM_PillarFrame.uasset",
				"C:/Users/wolk1/OneDrive/Documents/Unreal Projects/tps/Content/StarterContent/Props/SM_PillarFrame.uasset",
				"C:/Users/wolk1/OneDrive/Documents/Unreal Projects/tps/Content/Enviroment/Structure/Props/SM_DoorFrame.uasset",
				"C:/Users/wolk1/OneDrive/Documents/Unreal Projects/tps/Content/StarterContent/Props/SM_DoorFrame.uasset",
				"C:/Users/wolk1/OneDrive/Documents/Unreal Projects/tps/Content/Enviroment/Structure/Props/SM_Couch.uasset",
				"C:/Users/wolk1/OneDrive/Documents/Unreal Projects/tps/Content/Enviroment/Structure/Props/SM_CornerFrame.uasset",
				"C:/Users/wolk1/OneDrive/Documents/Unreal Projects/tps/Content/StarterContent/Props/SM_CornerFrame.uasset",
				"C:/Users/wolk1/OneDrive/Documents/Unreal Projects/tps/Content/Enviroment/Structure/Props/SM_Chair.uasset",
				"C:/Users/wolk1/OneDrive/Documents/Unreal Projects/tps/Content/StarterContent/Props/SM_Chair.uasset",
				"C:/Users/wolk1/OneDrive/Documents/Unreal Projects/tps/Content/Enviroment/Structure/Props/SM_Bush.uasset",
				"C:/Users/wolk1/OneDrive/Documents/Unreal Projects/tps/Content/Enviroment/Structure/Props/MaterialSphere.uasset",
				"C:/Users/wolk1/OneDrive/Documents/Unreal Projects/tps/Content/StarterContent/Props/MaterialSphere.uasset",
				"C:/Users/wolk1/OneDrive/Documents/Unreal Projects/tps/Content/Enviroment/Structure/Props/Materials/M_TableRound.uasset",
				"C:/Users/wolk1/OneDrive/Documents/Unreal Projects/tps/Content/Enviroment/Structure/Props/Materials/M_StatueGlass.uasset",
				"C:/Users/wolk1/OneDrive/Documents/Unreal Projects/tps/Content/StarterContent/Props/Materials/M_StatueGlass.uasset",
				"C:/Users/wolk1/OneDrive/Documents/Unreal Projects/tps/Content/Enviroment/Structure/Props/Materials/M_Statue.uasset",
				"C:/Users/wolk1/OneDrive/Documents/Unreal Projects/tps/Content/Enviroment/Structure/Props/Materials/M_Shelf.uasset",
				"C:/Users/wolk1/OneDrive/Documents/Unreal Projects/tps/Content/Enviroment/Structure/Props/Materials/M_Rock.uasset",
				"C:/Users/wolk1/OneDrive/Documents/Unreal Projects/tps/Content/Enviroment/Structure/Props/Materials/M_Frame.uasset",
				"C:/Users/wolk1/OneDrive/Documents/Unreal Projects/tps/Content/Enviroment/Structure/Props/Materials/M_Chair.uasset",
				"C:/Users/wolk1/OneDrive/Documents/Unreal Projects/tps/Content/StarterContent/Props/Materials/M_Chair.uasset",
				"C:/Users/wolk1/OneDrive/Documents/Unreal Projects/tps/Content/Enviroment/Structure/Props/Materials/M_Bush.uasset",
				"C:/Users/wolk1/OneDrive/Documents/Unreal Projects/tps/Content/StarterContent/Props/Materials/M_Bush.uasset",
				"C:/Users/wolk1/OneDrive/Documents/Unreal Projects/tps/Content/StarterContent/Props/Materials/M_Frame.uasset",
				"C:/Users/wolk1/OneDrive/Documents/Unreal Projects/tps/Content/StarterContent/Props/Materials/M_Rock.uasset",
				"C:/Users/wolk1/OneDrive/Documents/Unreal Projects/tps/Content/StarterContent/Props/Materials/M_Shelf.uasset",
				"C:/Users/wolk1/OneDrive/Documents/Unreal Projects/tps/Content/StarterContent/Props/Materials/M_Statue.uasset",
				"C:/Users/wolk1/OneDrive/Documents/Unreal Projects/tps/Content/StarterContent/Props/Materials/M_TableRound.uasset",
				"C:/Users/wolk1/OneDrive/Documents/Unreal Projects/tps/Content/StarterContent/Props/SM_Bush.uasset",
				"C:/Users/wolk1/OneDrive/Documents/Unreal Projects/tps/Content/StarterContent/Props/SM_Couch.uasset",
				"C:/Users/wolk1/OneDrive/Documents/Unreal Projects/tps/Content/StarterContent/Props/SM_Rock.uasset",
				"C:/Users/wolk1/OneDrive/Documents/Unreal Projects/tps/Content/StarterContent/Props/SM_Shelf.uasset",
				"C:/Users/wolk1/OneDrive/Documents/Unreal Projects/tps/Content/StarterContent/Props/Materials/M_Door.uasset",
				"C:/Users/wolk1/OneDrive/Documents/Unreal Projects/tps/Content/StarterContent/Props/SM_Lamp_Wall.uasset",
				"C:/Users/wolk1/OneDrive/Documents/Unreal Projects/tps/Content/StarterContent/Props/Materials/M_Lamp.uasset",
				"C:/Users/wolk1/OneDrive/Documents/Unreal Projects/tps/Content/StarterContent/Props/SM_Lamp_Ceiling.uasset",
				"C:/Users/wolk1/OneDrive/Documents/Unreal Projects/tps/Content/Enviroment/Structure/Shapes/Shape_Cone.uasset",
				"C:/Users/wolk1/OneDrive/Documents/Unreal Projects/tps/Content/Enviroment/Structure/Shapes/Shape_Cube.uasset",
				"C:/Users/wolk1/OneDrive/Documents/Unreal Projects/tps/Content/Enviroment/Structure/Shapes/Shape_Cylinder.uasset",
				"C:/Users/wolk1/OneDrive/Documents/Unreal Projects/tps/Content/Enviroment/Structure/Shapes/Shape_NarrowCapsule.uasset",
				"C:/Users/wolk1/OneDrive/Documents/Unreal Projects/tps/Content/Enviroment/Structure/Shapes/Shape_Pipe.uasset",
				"C:/Users/wolk1/OneDrive/Documents/Unreal Projects/tps/Content/Enviroment/Structure/Shapes/Shape_Pipe_90.uasset",
				"C:/Users/wolk1/OneDrive/Documents/Unreal Projects/tps/Content/Enviroment/Structure/Shapes/Shape_Pipe_180.uasset",
				"C:/Users/wolk1/OneDrive/Documents/Unreal Projects/tps/Content/Enviroment/Structure/Shapes/Shape_Plane.uasset",
				"C:/Users/wolk1/OneDrive/Documents/Unreal Projects/tps/Content/Enviroment/Structure/Shapes/Shape_QuadPyramid.uasset",
				"C:/Users/wolk1/OneDrive/Documents/Unreal Projects/tps/Content/Enviroment/Structure/Shapes/Shape_Sphere.uasset",
				"C:/Users/wolk1/OneDrive/Documents/Unreal Projects/tps/Content/Enviroment/Structure/Shapes/Shape_Torus.uasset",
				"C:/Users/wolk1/OneDrive/Documents/Unreal Projects/tps/Content/Enviroment/Structure/Shapes/Shape_Trim.uasset",
				"C:/Users/wolk1/OneDrive/Documents/Unreal Projects/tps/Content/Enviroment/Structure/Shapes/Shape_Trim_90_In.uasset",
				"C:/Users/wolk1/OneDrive/Documents/Unreal Projects/tps/Content/Enviroment/Structure/Shapes/Shape_Trim_90_Out.uasset",
				"C:/Users/wolk1/OneDrive/Documents/Unreal Projects/tps/Content/Enviroment/Structure/Shapes/Shape_TriPyramid.uasset",
				"C:/Users/wolk1/OneDrive/Documents/Unreal Projects/tps/Content/Enviroment/Structure/Shapes/Shape_Tube.uasset",
				"C:/Users/wolk1/OneDrive/Documents/Unreal Projects/tps/Content/Enviroment/Structure/Shapes/Shape_Wedge_A.uasset",
				"C:/Users/wolk1/OneDrive/Documents/Unreal Projects/tps/Content/Enviroment/Structure/Shapes/Shape_Wedge_B.uasset",
				"C:/Users/wolk1/OneDrive/Documents/Unreal Projects/tps/Content/Enviroment/Structure/Shapes/Shape_WideCapsule.uasset",
				"C:/Users/wolk1/OneDrive/Documents/Unreal Projects/tps/Content/Blueprints/Game/BP_PlayerController.uasset",
				"C:/Users/wolk1/OneDrive/Documents/Unreal Projects/tps/Content/Blueprints/Game/BP_PlayerState.uasset",
				"C:/Users/wolk1/OneDrive/Documents/Unreal Projects/tps/Content/Blueprints/Game/BP_GameState.uasset"
			]
		}
	]
}